%YAML 1.1
%TAG !u! tag:unity3d.com,2011:
--- !u!29 &1
OcclusionCullingSettings:
  m_ObjectHideFlags: 0
  serializedVersion: 2
  m_OcclusionBakeSettings:
    smallestOccluder: 5
    smallestHole: 0.25
    backfaceThreshold: 100
  m_SceneGUID: 00000000000000000000000000000000
  m_OcclusionCullingData: {fileID: 0}
--- !u!104 &2
RenderSettings:
  m_ObjectHideFlags: 0
  serializedVersion: 8
  m_Fog: 0
  m_FogColor: {r: 0.5, g: 0.5, b: 0.5, a: 1}
  m_FogMode: 3
  m_FogDensity: 0.01
  m_LinearFogStart: 0
  m_LinearFogEnd: 300
  m_AmbientSkyColor: {r: 0.2, g: 0.2, b: 0.2, a: 1}
  m_AmbientEquatorColor: {r: 0.2, g: 0.2, b: 0.2, a: 1}
  m_AmbientGroundColor: {r: 0.2, g: 0.2, b: 0.2, a: 1}
  m_AmbientIntensity: 1
  m_AmbientMode: 3
  m_SubtractiveShadowColor: {r: 0.42, g: 0.478, b: 0.627, a: 1}
  m_SkyboxMaterial: {fileID: 0}
  m_HaloStrength: 0.5
  m_FlareStrength: 1
  m_FlareFadeSpeed: 3
  m_HaloTexture: {fileID: 0}
  m_SpotCookie: {fileID: 10001, guid: 0000000000000000e000000000000000, type: 0}
  m_DefaultReflectionMode: 0
  m_DefaultReflectionResolution: 128
  m_ReflectionBounces: 1
  m_ReflectionIntensity: 1
  m_CustomReflection: {fileID: 0}
  m_Sun: {fileID: 0}
  m_IndirectSpecularColor: {r: 0, g: 0, b: 0, a: 1}
--- !u!157 &4
LightmapSettings:
  m_ObjectHideFlags: 0
  serializedVersion: 11
  m_GIWorkflowMode: 1
  m_GISettings:
    serializedVersion: 2
    m_BounceScale: 1
    m_IndirectOutputScale: 1
    m_AlbedoBoost: 1
    m_TemporalCoherenceThreshold: 1
    m_EnvironmentLightingMode: 0
    m_EnableBakedLightmaps: 1
    m_EnableRealtimeLightmaps: 0
  m_LightmapEditorSettings:
    serializedVersion: 9
    m_Resolution: 1
    m_BakeResolution: 50
    m_TextureWidth: 1024
    m_TextureHeight: 1024
    m_AO: 0
    m_AOMaxDistance: 1
    m_CompAOExponent: 0
    m_CompAOExponentDirect: 0
    m_Padding: 2
    m_LightmapParameters: {fileID: 0}
    m_LightmapsBakeMode: 1
    m_TextureCompression: 0
    m_FinalGather: 0
    m_FinalGatherFiltering: 1
    m_FinalGatherRayCount: 1024
    m_ReflectionCompression: 2
    m_MixedBakeMode: 1
    m_BakeBackend: 0
    m_PVRSampling: 1
    m_PVRDirectSampleCount: 32
    m_PVRSampleCount: 500
    m_PVRBounces: 2
    m_PVRFilterTypeDirect: 0
    m_PVRFilterTypeIndirect: 0
    m_PVRFilterTypeAO: 0
    m_PVRFilteringMode: 0
    m_PVRCulling: 1
    m_PVRFilteringGaussRadiusDirect: 1
    m_PVRFilteringGaussRadiusIndirect: 5
    m_PVRFilteringGaussRadiusAO: 2
    m_PVRFilteringAtrousPositionSigmaDirect: 0.5
    m_PVRFilteringAtrousPositionSigmaIndirect: 2
    m_PVRFilteringAtrousPositionSigmaAO: 1
    m_ShowResolutionOverlay: 1
  m_LightingDataAsset: {fileID: 0}
  m_UseShadowmask: 0
--- !u!196 &5
NavMeshSettings:
  serializedVersion: 2
  m_ObjectHideFlags: 0
  m_BuildSettings:
    serializedVersion: 2
    agentTypeID: 0
    agentRadius: 0.5
    agentHeight: 2
    agentSlope: 45
    agentClimb: 0.4
    ledgeDropHeight: 0
    maxJumpAcrossDistance: 0
    minRegionArea: 2
    manualCellSize: 0
    cellSize: 0.16666666
    manualTileSize: 0
    tileSize: 256
    accuratePlacement: 0
    debug:
      m_Flags: 0
  m_NavMeshData: {fileID: 0}
--- !u!1 &6467329
GameObject:
  m_ObjectHideFlags: 0
  m_PrefabParentObject: {fileID: 100092, guid: 959d14bf134f54a6e993fe6ca6e063c0, type: 3}
  m_PrefabInternal: {fileID: 0}
  serializedVersion: 5
  m_Component:
  - component: {fileID: 6467330}
  m_Layer: 0
  m_Name: BipDummy R Finger1
  m_TagString: Untagged
  m_Icon: {fileID: 0}
  m_NavMeshLayer: 0
  m_StaticEditorFlags: 0
  m_IsActive: 1
--- !u!4 &6467330
Transform:
  m_ObjectHideFlags: 0
  m_PrefabParentObject: {fileID: 400092, guid: 959d14bf134f54a6e993fe6ca6e063c0, type: 3}
  m_PrefabInternal: {fileID: 0}
  m_GameObject: {fileID: 6467329}
  m_LocalRotation: {x: 0.00039008295, y: 0.000079733094, z: -0.20024739, w: 0.97974527}
  m_LocalPosition: {x: -0.1003982, y: -0.003286316, z: 0.022276932}
  m_LocalScale: {x: 1, y: 1, z: 1.0000001}
  m_Children:
  - {fileID: 1736060480}
  m_Father: {fileID: 747414014}
  m_RootOrder: 1
  m_LocalEulerAnglesHint: {x: 0, y: 0, z: 0}
--- !u!1 &26283401
GameObject:
  m_ObjectHideFlags: 0
  m_PrefabParentObject: {fileID: 0}
  m_PrefabInternal: {fileID: 0}
  serializedVersion: 5
  m_Component:
  - component: {fileID: 26283402}
  - component: {fileID: 26283405}
  - component: {fileID: 26283403}
  m_Layer: 0
  m_Name: Laser2
  m_TagString: Untagged
  m_Icon: {fileID: 0}
  m_NavMeshLayer: 0
  m_StaticEditorFlags: 0
  m_IsActive: 1
--- !u!4 &26283402
Transform:
  m_ObjectHideFlags: 0
  m_PrefabParentObject: {fileID: 0}
  m_PrefabInternal: {fileID: 0}
  m_GameObject: {fileID: 26283401}
  m_LocalRotation: {x: 0.5, y: 0.5, z: -0.5000001, w: 0.49999994}
  m_LocalPosition: {x: 0, y: -5.5, z: 0}
  m_LocalScale: {x: 0.0010000002, y: 1, z: 1}
  m_Children: []
  m_Father: {fileID: 189356423}
  m_RootOrder: 1
  m_LocalEulerAnglesHint: {x: 0, y: 0, z: 0}
--- !u!23 &26283403
MeshRenderer:
  m_ObjectHideFlags: 0
  m_PrefabParentObject: {fileID: 0}
  m_PrefabInternal: {fileID: 0}
  m_GameObject: {fileID: 26283401}
  m_Enabled: 1
  m_CastShadows: 0
  m_ReceiveShadows: 0
  m_DynamicOccludee: 1
  m_MotionVectors: 1
  m_LightProbeUsage: 0
  m_ReflectionProbeUsage: 1
  m_Materials:
  - {fileID: 2100000, guid: 440d6a9870aca7b4d94eebb649da8773, type: 2}
  m_StaticBatchInfo:
    firstSubMesh: 0
    subMeshCount: 0
  m_StaticBatchRoot: {fileID: 0}
  m_ProbeAnchor: {fileID: 0}
  m_LightProbeVolumeOverride: {fileID: 0}
  m_ScaleInLightmap: 1
  m_PreserveUVs: 0
  m_IgnoreNormalsForChartDetection: 0
  m_ImportantGI: 0
  m_StitchLightmapSeams: 0
  m_SelectedEditorRenderState: 3
  m_MinimumChartSize: 4
  m_AutoUVMaxDistance: 0.5
  m_AutoUVMaxAngle: 89
  m_LightmapParameters: {fileID: 0}
  m_SortingLayerID: 0
  m_SortingLayer: 0
  m_SortingOrder: 0
--- !u!33 &26283405
MeshFilter:
  m_ObjectHideFlags: 0
  m_PrefabParentObject: {fileID: 0}
  m_PrefabInternal: {fileID: 0}
  m_GameObject: {fileID: 26283401}
  m_Mesh: {fileID: 10209, guid: 0000000000000000e000000000000000, type: 0}
--- !u!1 &60494055
GameObject:
  m_ObjectHideFlags: 0
  m_PrefabParentObject: {fileID: 100008, guid: 959d14bf134f54a6e993fe6ca6e063c0, type: 3}
  m_PrefabInternal: {fileID: 0}
  serializedVersion: 5
  m_Component:
  - component: {fileID: 60494056}
  m_Layer: 0
  m_Name: Bip002 L Foot
  m_TagString: Untagged
  m_Icon: {fileID: 0}
  m_NavMeshLayer: 0
  m_StaticEditorFlags: 0
  m_IsActive: 1
--- !u!4 &60494056
Transform:
  m_ObjectHideFlags: 0
  m_PrefabParentObject: {fileID: 400008, guid: 959d14bf134f54a6e993fe6ca6e063c0, type: 3}
  m_PrefabInternal: {fileID: 0}
  m_GameObject: {fileID: 60494055}
  m_LocalRotation: {x: -0.04586778, y: 0.013275927, z: -0.101802245, w: 0.993658}
  m_LocalPosition: {x: -0.41098914, y: -0.000000007629395, z: 0}
  m_LocalScale: {x: 1, y: 0.99999994, z: 0.99999994}
  m_Children:
  - {fileID: 1873609688}
  m_Father: {fileID: 421344775}
  m_RootOrder: 0
  m_LocalEulerAnglesHint: {x: 0, y: 0, z: 0}
--- !u!1 &102043098
GameObject:
  m_ObjectHideFlags: 0
  m_PrefabParentObject: {fileID: 100062, guid: 959d14bf134f54a6e993fe6ca6e063c0, type: 3}
  m_PrefabInternal: {fileID: 0}
  serializedVersion: 5
  m_Component:
  - component: {fileID: 102043099}
  m_Layer: 0
  m_Name: BipDummy L Finger02
  m_TagString: Untagged
  m_Icon: {fileID: 0}
  m_NavMeshLayer: 0
  m_StaticEditorFlags: 0
  m_IsActive: 1
--- !u!4 &102043099
Transform:
  m_ObjectHideFlags: 0
  m_PrefabParentObject: {fileID: 400062, guid: 959d14bf134f54a6e993fe6ca6e063c0, type: 3}
  m_PrefabInternal: {fileID: 0}
  m_GameObject: {fileID: 102043098}
  m_LocalRotation: {x: 0.032045208, y: 0.123279884, z: -0.24952908, w: 0.95995337}
  m_LocalPosition: {x: -0.032908816, y: -0.000000007629395, z: 0.00000003051758}
  m_LocalScale: {x: 0.9999999, y: 0.99999994, z: 1}
  m_Children: []
  m_Father: {fileID: 1560817817}
  m_RootOrder: 0
  m_LocalEulerAnglesHint: {x: 0, y: 0, z: 0}
--- !u!1 &127049622
GameObject:
  m_ObjectHideFlags: 0
  m_PrefabParentObject: {fileID: 100084, guid: 959d14bf134f54a6e993fe6ca6e063c0, type: 3}
  m_PrefabInternal: {fileID: 0}
  serializedVersion: 5
  m_Component:
  - component: {fileID: 127049623}
  m_Layer: 0
  m_Name: BipDummy L Finger41
  m_TagString: Untagged
  m_Icon: {fileID: 0}
  m_NavMeshLayer: 0
  m_StaticEditorFlags: 0
  m_IsActive: 1
--- !u!4 &127049623
Transform:
  m_ObjectHideFlags: 0
  m_PrefabParentObject: {fileID: 400084, guid: 959d14bf134f54a6e993fe6ca6e063c0, type: 3}
  m_PrefabInternal: {fileID: 0}
  m_GameObject: {fileID: 127049622}
  m_LocalRotation: {x: -0.000000027031515, y: 0.0000000021954984, z: -0.35165805,
    w: 0.93612856}
  m_LocalPosition: {x: -0.03212024, y: -0.00000003051758, z: -0.000000045776368}
  m_LocalScale: {x: 0.99999994, y: 0.99999976, z: 1}
  m_Children:
  - {fileID: 937113188}
  m_Father: {fileID: 320817098}
  m_RootOrder: 0
  m_LocalEulerAnglesHint: {x: 0, y: 0, z: 0}
--- !u!1 &132010118
GameObject:
  m_ObjectHideFlags: 0
  m_PrefabParentObject: {fileID: 100090, guid: 959d14bf134f54a6e993fe6ca6e063c0, type: 3}
  m_PrefabInternal: {fileID: 0}
  serializedVersion: 5
  m_Component:
  - component: {fileID: 132010119}
  m_Layer: 0
  m_Name: BipDummy R Finger02
  m_TagString: Untagged
  m_Icon: {fileID: 0}
  m_NavMeshLayer: 0
  m_StaticEditorFlags: 0
  m_IsActive: 1
--- !u!4 &132010119
Transform:
  m_ObjectHideFlags: 0
  m_PrefabParentObject: {fileID: 400090, guid: 959d14bf134f54a6e993fe6ca6e063c0, type: 3}
  m_PrefabInternal: {fileID: 0}
  m_GameObject: {fileID: 132010118}
  m_LocalRotation: {x: -0.0051727896, y: -0.14755645, z: -0.23301202, w: 0.9612002}
  m_LocalPosition: {x: -0.032908753, y: -0.000000007629395, z: -0.00000003051758}
  m_LocalScale: {x: 1.0000001, y: 1.0000001, z: 1.0000001}
  m_Children: []
  m_Father: {fileID: 1493159008}
  m_RootOrder: 0
  m_LocalEulerAnglesHint: {x: 0, y: 0, z: 0}
--- !u!1 &145184592
GameObject:
  m_ObjectHideFlags: 0
  m_PrefabParentObject: {fileID: 0}
  m_PrefabInternal: {fileID: 0}
  serializedVersion: 5
  m_Component:
  - component: {fileID: 145184595}
  - component: {fileID: 145184594}
  - component: {fileID: 145184593}
  m_Layer: 0
  m_Name: Aim Target (2)
  m_TagString: Untagged
  m_Icon: {fileID: -964228994112308473, guid: 0000000000000000d000000000000000, type: 0}
  m_NavMeshLayer: 0
  m_StaticEditorFlags: 0
  m_IsActive: 1
--- !u!23 &145184593
MeshRenderer:
  m_ObjectHideFlags: 0
  m_PrefabParentObject: {fileID: 0}
  m_PrefabInternal: {fileID: 0}
  m_GameObject: {fileID: 145184592}
  m_Enabled: 1
  m_CastShadows: 0
  m_ReceiveShadows: 0
  m_DynamicOccludee: 1
  m_MotionVectors: 1
  m_LightProbeUsage: 0
  m_ReflectionProbeUsage: 1
  m_Materials:
  - {fileID: 2100000, guid: aae886dd0d5d59844b4ec40cc2d96918, type: 2}
  m_StaticBatchInfo:
    firstSubMesh: 0
    subMeshCount: 0
  m_StaticBatchRoot: {fileID: 0}
  m_ProbeAnchor: {fileID: 0}
  m_LightProbeVolumeOverride: {fileID: 0}
  m_ScaleInLightmap: 1
  m_PreserveUVs: 0
  m_IgnoreNormalsForChartDetection: 0
  m_ImportantGI: 0
  m_StitchLightmapSeams: 0
  m_SelectedEditorRenderState: 3
  m_MinimumChartSize: 4
  m_AutoUVMaxDistance: 0.5
  m_AutoUVMaxAngle: 89
  m_LightmapParameters: {fileID: 0}
  m_SortingLayerID: 0
  m_SortingLayer: 0
  m_SortingOrder: 0
--- !u!33 &145184594
MeshFilter:
  m_ObjectHideFlags: 0
  m_PrefabParentObject: {fileID: 0}
  m_PrefabInternal: {fileID: 0}
  m_GameObject: {fileID: 145184592}
  m_Mesh: {fileID: 10207, guid: 0000000000000000e000000000000000, type: 0}
--- !u!4 &145184595
Transform:
  m_ObjectHideFlags: 0
  m_PrefabParentObject: {fileID: 0}
  m_PrefabInternal: {fileID: 0}
  m_GameObject: {fileID: 145184592}
  m_LocalRotation: {x: 0, y: 0, z: 0, w: 1}
  m_LocalPosition: {x: 0.2285862, y: 0.793, z: 2.527}
  m_LocalScale: {x: 0.1, y: 0.1, z: 0.1}
  m_Children: []
  m_Father: {fileID: 0}
  m_RootOrder: 5
  m_LocalEulerAnglesHint: {x: 0, y: 0, z: 0}
--- !u!1 &147244217
GameObject:
  m_ObjectHideFlags: 0
  m_PrefabParentObject: {fileID: 100040, guid: 959d14bf134f54a6e993fe6ca6e063c0, type: 3}
  m_PrefabInternal: {fileID: 0}
  serializedVersion: 5
  m_Component:
  - component: {fileID: 147244218}
  m_Layer: 0
  m_Name: Bip002 R Thigh
  m_TagString: Untagged
  m_Icon: {fileID: 0}
  m_NavMeshLayer: 0
  m_StaticEditorFlags: 0
  m_IsActive: 1
--- !u!4 &147244218
Transform:
  m_ObjectHideFlags: 0
  m_PrefabParentObject: {fileID: 400040, guid: 959d14bf134f54a6e993fe6ca6e063c0, type: 3}
  m_PrefabInternal: {fileID: 0}
  m_GameObject: {fileID: 147244217}
  m_LocalRotation: {x: -0.012553991, y: 0.99988455, z: -0.0005164296, w: -0.008549793}
  m_LocalPosition: {x: 0.09312867, y: -0.0024269181, z: -0.096502244}
  m_LocalScale: {x: 0.99999994, y: 1.0000001, z: 1.0000001}
  m_Children:
  - {fileID: 1618081541}
  m_Father: {fileID: 2068172140}
  m_RootOrder: 1
  m_LocalEulerAnglesHint: {x: 0, y: 0, z: 0}
--- !u!1 &158524491
GameObject:
  m_ObjectHideFlags: 0
  m_PrefabParentObject: {fileID: 0}
  m_PrefabInternal: {fileID: 0}
  serializedVersion: 5
  m_Component:
  - component: {fileID: 158524493}
  - component: {fileID: 158524492}
  m_Layer: 0
  m_Name: READ ME!
  m_TagString: Untagged
  m_Icon: {fileID: 0}
  m_NavMeshLayer: 0
  m_StaticEditorFlags: 0
  m_IsActive: 1
--- !u!114 &158524492
MonoBehaviour:
  m_ObjectHideFlags: 0
  m_PrefabParentObject: {fileID: 0}
  m_PrefabInternal: {fileID: 0}
  m_GameObject: {fileID: 158524491}
  m_Enabled: 1
  m_EditorHideFlags: 0
  m_Script: {fileID: 11500000, guid: 92471cc1733c49042be56cd39b4b6e5e, type: 3}
  m_Name: 
  m_EditorClassIdentifier: 
  text: 'Find the AimController.cs component on the Dummy Humandoid GameObject.

    Switch it''s "Target" between "Aim Target (1)" and "Aim Target (2)" or set it
    to null to disable aiming. Play around with other parameters to tweak the aiming
    behaviour. Read the tooltips in AimController for more information.'
--- !u!4 &158524493
Transform:
  m_ObjectHideFlags: 0
  m_PrefabParentObject: {fileID: 0}
  m_PrefabInternal: {fileID: 0}
  m_GameObject: {fileID: 158524491}
  m_LocalRotation: {x: 0, y: 0, z: 0, w: 1}
  m_LocalPosition: {x: -0.32265368, y: 1.5836605, z: 0.343359}
  m_LocalScale: {x: 1, y: 1, z: 1}
  m_Children: []
  m_Father: {fileID: 0}
  m_RootOrder: 0
  m_LocalEulerAnglesHint: {x: 0, y: 0, z: 0}
--- !u!4 &189356423
Transform:
  m_ObjectHideFlags: 0
  m_PrefabParentObject: {fileID: 400028, guid: 7a30e2e74b2c24169a1b8eb71cf56878, type: 3}
  m_PrefabInternal: {fileID: 2074133477}
  m_GameObject: {fileID: 1847439069}
  m_LocalRotation: {x: -0.7071068, y: 0.000000038123602, z: -0.00000006117263, w: 0.70710677}
  m_LocalPosition: {x: -0.00041241458, y: 0.06287573, z: -0.11712145}
  m_LocalScale: {x: 1, y: 1, z: 1.0000001}
  m_Children:
  - {fileID: 1363997988}
  - {fileID: 26283402}
  m_Father: {fileID: 279049983}
  m_RootOrder: 0
  m_LocalEulerAnglesHint: {x: 0, y: 0, z: 0}
--- !u!1 &259321498
GameObject:
  m_ObjectHideFlags: 0
  m_PrefabParentObject: {fileID: 100104, guid: 959d14bf134f54a6e993fe6ca6e063c0, type: 3}
  m_PrefabInternal: {fileID: 0}
  serializedVersion: 5
  m_Component:
  - component: {fileID: 259321499}
  m_Layer: 0
  m_Name: BipDummy R Finger3
  m_TagString: Untagged
  m_Icon: {fileID: 0}
  m_NavMeshLayer: 0
  m_StaticEditorFlags: 0
  m_IsActive: 1
--- !u!4 &259321499
Transform:
  m_ObjectHideFlags: 0
  m_PrefabParentObject: {fileID: 400104, guid: 959d14bf134f54a6e993fe6ca6e063c0, type: 3}
  m_PrefabInternal: {fileID: 0}
  m_GameObject: {fileID: 259321498}
  m_LocalRotation: {x: 0.0022173636, y: -0.0136231445, z: -0.13210824, w: 0.99113923}
  m_LocalPosition: {x: -0.10328601, y: 0.0010224, z: -0.020135256}
  m_LocalScale: {x: 1, y: 1, z: 1.0000001}
  m_Children:
  - {fileID: 432137718}
  m_Father: {fileID: 747414014}
  m_RootOrder: 3
  m_LocalEulerAnglesHint: {x: 0, y: 0, z: 0}
--- !u!1 &279049982
GameObject:
  m_ObjectHideFlags: 0
  m_PrefabParentObject: {fileID: 100022, guid: 7a30e2e74b2c24169a1b8eb71cf56878, type: 3}
  m_PrefabInternal: {fileID: 2074133477}
  serializedVersion: 5
  m_Component:
  - component: {fileID: 279049983}
  - component: {fileID: 279049985}
  - component: {fileID: 279049984}
  m_Layer: 0
  m_Name: FBXExport_Props:MP40
  m_TagString: Untagged
  m_Icon: {fileID: 0}
  m_NavMeshLayer: 0
  m_StaticEditorFlags: 0
  m_IsActive: 1
--- !u!4 &279049983
Transform:
  m_ObjectHideFlags: 0
  m_PrefabParentObject: {fileID: 400022, guid: 7a30e2e74b2c24169a1b8eb71cf56878, type: 3}
  m_PrefabInternal: {fileID: 2074133477}
  m_GameObject: {fileID: 279049982}
  m_LocalRotation: {x: 0.5028256, y: -0.38515222, z: -0.5242003, w: 0.56924355}
  m_LocalPosition: {x: -0.22425295, y: 0.0017703858, z: 0.083951846}
  m_LocalScale: {x: 0.99999994, y: 1.0000001, z: 1.0000001}
  m_Children:
  - {fileID: 189356423}
  m_Father: {fileID: 307773728}
  m_RootOrder: 0
  m_LocalEulerAnglesHint: {x: 0, y: 0, z: 0}
--- !u!23 &279049984
MeshRenderer:
  m_ObjectHideFlags: 0
  m_PrefabParentObject: {fileID: 2300000, guid: 7a30e2e74b2c24169a1b8eb71cf56878,
    type: 3}
  m_PrefabInternal: {fileID: 2074133477}
  m_GameObject: {fileID: 279049982}
  m_Enabled: 1
  m_CastShadows: 1
  m_ReceiveShadows: 1
  m_DynamicOccludee: 1
  m_MotionVectors: 1
  m_LightProbeUsage: 1
  m_ReflectionProbeUsage: 1
  m_Materials:
  - {fileID: 2100000, guid: eb554719301d24a27a03d90e35702330, type: 2}
  m_StaticBatchInfo:
    firstSubMesh: 0
    subMeshCount: 0
  m_StaticBatchRoot: {fileID: 0}
  m_ProbeAnchor: {fileID: 0}
  m_LightProbeVolumeOverride: {fileID: 0}
  m_ScaleInLightmap: 1
  m_PreserveUVs: 0
  m_IgnoreNormalsForChartDetection: 0
  m_ImportantGI: 0
  m_StitchLightmapSeams: 0
  m_SelectedEditorRenderState: 3
  m_MinimumChartSize: 4
  m_AutoUVMaxDistance: 0.5
  m_AutoUVMaxAngle: 89
  m_LightmapParameters: {fileID: 0}
  m_SortingLayerID: 0
  m_SortingLayer: 0
  m_SortingOrder: 0
--- !u!33 &279049985
MeshFilter:
  m_ObjectHideFlags: 0
  m_PrefabParentObject: {fileID: 3300000, guid: 7a30e2e74b2c24169a1b8eb71cf56878,
    type: 3}
  m_PrefabInternal: {fileID: 2074133477}
  m_GameObject: {fileID: 279049982}
  m_Mesh: {fileID: 4300000, guid: 7a30e2e74b2c24169a1b8eb71cf56878, type: 3}
--- !u!4 &307773728
Transform:
  m_ObjectHideFlags: 0
  m_PrefabParentObject: {fileID: 400024, guid: 7a30e2e74b2c24169a1b8eb71cf56878, type: 3}
  m_PrefabInternal: {fileID: 2074133477}
  m_GameObject: {fileID: 1813504681}
  m_LocalRotation: {x: 0.000001013279, y: -0.00000031292439, z: 0.00000010430813,
    w: 1}
  m_LocalPosition: {x: 0, y: 0, z: -0}
  m_LocalScale: {x: 1, y: 1, z: 1}
  m_Children:
  - {fileID: 279049983}
  m_Father: {fileID: 747414014}
  m_RootOrder: 5
  m_LocalEulerAnglesHint: {x: 0, y: 0, z: 0}
--- !u!1 &320817097
GameObject:
  m_ObjectHideFlags: 0
  m_PrefabParentObject: {fileID: 100082, guid: 959d14bf134f54a6e993fe6ca6e063c0, type: 3}
  m_PrefabInternal: {fileID: 0}
  serializedVersion: 5
  m_Component:
  - component: {fileID: 320817098}
  m_Layer: 0
  m_Name: BipDummy L Finger4
  m_TagString: Untagged
  m_Icon: {fileID: 0}
  m_NavMeshLayer: 0
  m_StaticEditorFlags: 0
  m_IsActive: 1
--- !u!4 &320817098
Transform:
  m_ObjectHideFlags: 0
  m_PrefabParentObject: {fileID: 400082, guid: 959d14bf134f54a6e993fe6ca6e063c0, type: 3}
  m_PrefabInternal: {fileID: 0}
  m_GameObject: {fileID: 320817097}
  m_LocalRotation: {x: -0.002490904, y: 0.009521965, z: -0.21373138, w: 0.9768429}
  m_LocalPosition: {x: -0.09384656, y: 0.00909961, z: 0.03997948}
  m_LocalScale: {x: 1.0000001, y: 1.0000001, z: 0.9999999}
  m_Children:
  - {fileID: 127049623}
  m_Father: {fileID: 1271917787}
  m_RootOrder: 4
  m_LocalEulerAnglesHint: {x: 0, y: 0, z: 0}
--- !u!1 &328188906
GameObject:
  m_ObjectHideFlags: 0
  m_PrefabParentObject: {fileID: 100110, guid: 959d14bf134f54a6e993fe6ca6e063c0, type: 3}
  m_PrefabInternal: {fileID: 0}
  serializedVersion: 5
  m_Component:
  - component: {fileID: 328188907}
  m_Layer: 0
  m_Name: BipDummy R Finger4
  m_TagString: Untagged
  m_Icon: {fileID: 0}
  m_NavMeshLayer: 0
  m_StaticEditorFlags: 0
  m_IsActive: 1
--- !u!4 &328188907
Transform:
  m_ObjectHideFlags: 0
  m_PrefabParentObject: {fileID: 400110, guid: 959d14bf134f54a6e993fe6ca6e063c0, type: 3}
  m_PrefabInternal: {fileID: 0}
  m_GameObject: {fileID: 328188906}
  m_LocalRotation: {x: 0.0007130304, y: -0.0098164985, z: -0.032043967, w: 0.99943805}
  m_LocalPosition: {x: -0.09384656, y: 0.009099671, z: -0.039979525}
  m_LocalScale: {x: 1.0000001, y: 1.0000001, z: 1}
  m_Children:
  - {fileID: 441399257}
  m_Father: {fileID: 747414014}
  m_RootOrder: 4
  m_LocalEulerAnglesHint: {x: 0, y: 0, z: 0}
--- !u!1 &340078629
GameObject:
  m_ObjectHideFlags: 0
  m_PrefabParentObject: {fileID: 100072, guid: 959d14bf134f54a6e993fe6ca6e063c0, type: 3}
  m_PrefabInternal: {fileID: 0}
  serializedVersion: 5
  m_Component:
  - component: {fileID: 340078630}
  m_Layer: 0
  m_Name: BipDummy L Finger21
  m_TagString: Untagged
  m_Icon: {fileID: 0}
  m_NavMeshLayer: 0
  m_StaticEditorFlags: 0
  m_IsActive: 1
--- !u!4 &340078630
Transform:
  m_ObjectHideFlags: 0
  m_PrefabParentObject: {fileID: 400072, guid: 959d14bf134f54a6e993fe6ca6e063c0, type: 3}
  m_PrefabInternal: {fileID: 0}
  m_GameObject: {fileID: 340078629}
  m_LocalRotation: {x: 0.000000026105285, y: 0.000000005454415, z: -0.22450191, w: 0.97447366}
  m_LocalPosition: {x: -0.044976626, y: 0, z: 0}
  m_LocalScale: {x: 1, y: 1, z: 1.0000001}
  m_Children:
  - {fileID: 2022302129}
  m_Father: {fileID: 1546587122}
  m_RootOrder: 0
  m_LocalEulerAnglesHint: {x: 0, y: 0, z: 0}
--- !u!1 &396859339
GameObject:
  m_ObjectHideFlags: 0
  m_PrefabParentObject: {fileID: 100056, guid: 959d14bf134f54a6e993fe6ca6e063c0, type: 3}
  m_PrefabInternal: {fileID: 0}
  serializedVersion: 5
  m_Component:
  - component: {fileID: 396859340}
  m_Layer: 0
  m_Name: Bip002 Spine3
  m_TagString: Untagged
  m_Icon: {fileID: 0}
  m_NavMeshLayer: 0
  m_StaticEditorFlags: 0
  m_IsActive: 1
--- !u!4 &396859340
Transform:
  m_ObjectHideFlags: 0
  m_PrefabParentObject: {fileID: 400056, guid: 959d14bf134f54a6e993fe6ca6e063c0, type: 3}
  m_PrefabInternal: {fileID: 0}
  m_GameObject: {fileID: 396859339}
  m_LocalRotation: {x: -1.1736887e-13, y: 0.000000010320554, z: -0.0037209955, w: 0.9999931}
  m_LocalPosition: {x: -0.10531482, y: -0.00008385468, z: -2.3258327e-10}
  m_LocalScale: {x: 1, y: 1, z: 1}
  m_Children:
  - {fileID: 2061228840}
  m_Father: {fileID: 918966889}
  m_RootOrder: 0
  m_LocalEulerAnglesHint: {x: 0, y: 0, z: 0}
--- !u!1 &421344774
GameObject:
  m_ObjectHideFlags: 0
  m_PrefabParentObject: {fileID: 100002, guid: 959d14bf134f54a6e993fe6ca6e063c0, type: 3}
  m_PrefabInternal: {fileID: 0}
  serializedVersion: 5
  m_Component:
  - component: {fileID: 421344775}
  m_Layer: 0
  m_Name: Bip002 L Calf
  m_TagString: Untagged
  m_Icon: {fileID: 0}
  m_NavMeshLayer: 0
  m_StaticEditorFlags: 0
  m_IsActive: 1
--- !u!4 &421344775
Transform:
  m_ObjectHideFlags: 0
  m_PrefabParentObject: {fileID: 400002, guid: 959d14bf134f54a6e993fe6ca6e063c0, type: 3}
  m_PrefabInternal: {fileID: 0}
  m_GameObject: {fileID: 421344774}
  m_LocalRotation: {x: -3.5029177e-10, y: 8.9379376e-10, z: 0.12818542, w: 0.99175024}
  m_LocalPosition: {x: -0.42230678, y: 0, z: 0}
  m_LocalScale: {x: 1.0000001, y: 1.0000001, z: 1}
  m_Children:
  - {fileID: 60494056}
  m_Father: {fileID: 549381897}
  m_RootOrder: 0
  m_LocalEulerAnglesHint: {x: 0, y: 0, z: 0}
--- !u!1 &432137717
GameObject:
  m_ObjectHideFlags: 0
  m_PrefabParentObject: {fileID: 100106, guid: 959d14bf134f54a6e993fe6ca6e063c0, type: 3}
  m_PrefabInternal: {fileID: 0}
  serializedVersion: 5
  m_Component:
  - component: {fileID: 432137718}
  m_Layer: 0
  m_Name: BipDummy R Finger31
  m_TagString: Untagged
  m_Icon: {fileID: 0}
  m_NavMeshLayer: 0
  m_StaticEditorFlags: 0
  m_IsActive: 1
--- !u!4 &432137718
Transform:
  m_ObjectHideFlags: 0
  m_PrefabParentObject: {fileID: 400106, guid: 959d14bf134f54a6e993fe6ca6e063c0, type: 3}
  m_PrefabInternal: {fileID: 0}
  m_GameObject: {fileID: 432137717}
  m_LocalRotation: {x: -0.000000009311458, y: 1.813486e-10, z: -0.615464, w: 0.78816503}
  m_LocalPosition: {x: -0.040773623, y: 0.00000003051758, z: 0.00000001525879}
  m_LocalScale: {x: 1.0000001, y: 1.0000001, z: 1}
  m_Children:
  - {fileID: 1013175518}
  m_Father: {fileID: 259321499}
  m_RootOrder: 0
  m_LocalEulerAnglesHint: {x: 0, y: 0, z: 0}
--- !u!1 &441399256
GameObject:
  m_ObjectHideFlags: 0
  m_PrefabParentObject: {fileID: 100112, guid: 959d14bf134f54a6e993fe6ca6e063c0, type: 3}
  m_PrefabInternal: {fileID: 0}
  serializedVersion: 5
  m_Component:
  - component: {fileID: 441399257}
  m_Layer: 0
  m_Name: BipDummy R Finger41
  m_TagString: Untagged
  m_Icon: {fileID: 0}
  m_NavMeshLayer: 0
  m_StaticEditorFlags: 0
  m_IsActive: 1
--- !u!4 &441399257
Transform:
  m_ObjectHideFlags: 0
  m_PrefabParentObject: {fileID: 400112, guid: 959d14bf134f54a6e993fe6ca6e063c0, type: 3}
  m_PrefabInternal: {fileID: 0}
  m_GameObject: {fileID: 441399256}
  m_LocalRotation: {x: 0.0000000024180136, y: 0.0000000028339022, z: -0.6490805, w: 0.7607197}
  m_LocalPosition: {x: -0.032120302, y: 0.00000006103516, z: 0.00000006103516}
  m_LocalScale: {x: 0.9999999, y: 0.99999976, z: 0.99999994}
  m_Children:
  - {fileID: 788304569}
  m_Father: {fileID: 328188907}
  m_RootOrder: 0
  m_LocalEulerAnglesHint: {x: 0, y: 0, z: 0}
--- !u!1 &480133521
GameObject:
  m_ObjectHideFlags: 0
  m_PrefabParentObject: {fileID: 0}
  m_PrefabInternal: {fileID: 0}
  serializedVersion: 5
  m_Component:
  - component: {fileID: 480133524}
  - component: {fileID: 480133523}
  - component: {fileID: 480133522}
  m_Layer: 0
  m_Name: Aim Target (1)
  m_TagString: Untagged
  m_Icon: {fileID: 3936346786652291628, guid: 0000000000000000d000000000000000, type: 0}
  m_NavMeshLayer: 0
  m_StaticEditorFlags: 0
  m_IsActive: 1
--- !u!23 &480133522
MeshRenderer:
  m_ObjectHideFlags: 0
  m_PrefabParentObject: {fileID: 0}
  m_PrefabInternal: {fileID: 0}
  m_GameObject: {fileID: 480133521}
  m_Enabled: 1
  m_CastShadows: 0
  m_ReceiveShadows: 0
  m_DynamicOccludee: 1
  m_MotionVectors: 1
  m_LightProbeUsage: 0
  m_ReflectionProbeUsage: 1
  m_Materials:
  - {fileID: 2100000, guid: aae886dd0d5d59844b4ec40cc2d96918, type: 2}
  m_StaticBatchInfo:
    firstSubMesh: 0
    subMeshCount: 0
  m_StaticBatchRoot: {fileID: 0}
  m_ProbeAnchor: {fileID: 0}
  m_LightProbeVolumeOverride: {fileID: 0}
  m_ScaleInLightmap: 1
  m_PreserveUVs: 0
  m_IgnoreNormalsForChartDetection: 0
  m_ImportantGI: 0
  m_StitchLightmapSeams: 0
  m_SelectedEditorRenderState: 3
  m_MinimumChartSize: 4
  m_AutoUVMaxDistance: 0.5
  m_AutoUVMaxAngle: 89
  m_LightmapParameters: {fileID: 0}
  m_SortingLayerID: 0
  m_SortingLayer: 0
  m_SortingOrder: 0
--- !u!33 &480133523
MeshFilter:
  m_ObjectHideFlags: 0
  m_PrefabParentObject: {fileID: 0}
  m_PrefabInternal: {fileID: 0}
  m_GameObject: {fileID: 480133521}
  m_Mesh: {fileID: 10207, guid: 0000000000000000e000000000000000, type: 0}
--- !u!4 &480133524
Transform:
  m_ObjectHideFlags: 0
  m_PrefabParentObject: {fileID: 0}
  m_PrefabInternal: {fileID: 0}
  m_GameObject: {fileID: 480133521}
  m_LocalRotation: {x: 0, y: 0, z: 0, w: 1}
  m_LocalPosition: {x: 0.2285862, y: 2.242, z: 1.319}
  m_LocalScale: {x: 0.1, y: 0.1, z: 0.1}
  m_Children: []
  m_Father: {fileID: 0}
  m_RootOrder: 4
  m_LocalEulerAnglesHint: {x: 0, y: 0, z: 0}
--- !u!1 &542214083
GameObject:
  m_ObjectHideFlags: 0
  m_PrefabParentObject: {fileID: 100100, guid: 959d14bf134f54a6e993fe6ca6e063c0, type: 3}
  m_PrefabInternal: {fileID: 0}
  serializedVersion: 5
  m_Component:
  - component: {fileID: 542214084}
  m_Layer: 0
  m_Name: BipDummy R Finger21
  m_TagString: Untagged
  m_Icon: {fileID: 0}
  m_NavMeshLayer: 0
  m_StaticEditorFlags: 0
  m_IsActive: 1
--- !u!4 &542214084
Transform:
  m_ObjectHideFlags: 0
  m_PrefabParentObject: {fileID: 400100, guid: 959d14bf134f54a6e993fe6ca6e063c0, type: 3}
  m_PrefabInternal: {fileID: 0}
  m_GameObject: {fileID: 542214083}
  m_LocalRotation: {x: 0.000000035312798, y: 0.0000000014167345, z: -0.2779434, w: 0.96059746}
  m_LocalPosition: {x: -0.044976626, y: -0.00000001525879, z: 0}
  m_LocalScale: {x: 1, y: 1, z: 1}
  m_Children:
  - {fileID: 1964362848}
  m_Father: {fileID: 2078119364}
  m_RootOrder: 0
  m_LocalEulerAnglesHint: {x: 0, y: 0, z: 0}
--- !u!1 &549381896
GameObject:
  m_ObjectHideFlags: 0
  m_PrefabParentObject: {fileID: 100014, guid: 959d14bf134f54a6e993fe6ca6e063c0, type: 3}
  m_PrefabInternal: {fileID: 0}
  serializedVersion: 5
  m_Component:
  - component: {fileID: 549381897}
  m_Layer: 0
  m_Name: Bip002 L Thigh
  m_TagString: Untagged
  m_Icon: {fileID: 0}
  m_NavMeshLayer: 0
  m_StaticEditorFlags: 0
  m_IsActive: 1
--- !u!4 &549381897
Transform:
  m_ObjectHideFlags: 0
  m_PrefabParentObject: {fileID: 400014, guid: 959d14bf134f54a6e993fe6ca6e063c0, type: 3}
  m_PrefabInternal: {fileID: 0}
  m_GameObject: {fileID: 549381896}
  m_LocalRotation: {x: -0.012555973, y: 0.9998845, z: 0.0005191883, w: 0.008549745}
  m_LocalPosition: {x: 0.09312867, y: -0.0024274522, z: 0.096502244}
  m_LocalScale: {x: 1, y: 1, z: 1.0000001}
  m_Children:
  - {fileID: 421344775}
  m_Father: {fileID: 2068172140}
  m_RootOrder: 0
  m_LocalEulerAnglesHint: {x: 0, y: 0, z: 0}
--- !u!1 &616309834
GameObject:
  m_ObjectHideFlags: 0
  m_PrefabParentObject: {fileID: 100042, guid: 959d14bf134f54a6e993fe6ca6e063c0, type: 3}
  m_PrefabInternal: {fileID: 0}
  serializedVersion: 5
  m_Component:
  - component: {fileID: 616309835}
  m_Layer: 0
  m_Name: Bip002 R Toe0
  m_TagString: Untagged
  m_Icon: {fileID: 0}
  m_NavMeshLayer: 0
  m_StaticEditorFlags: 0
  m_IsActive: 1
--- !u!4 &616309835
Transform:
  m_ObjectHideFlags: 0
  m_PrefabParentObject: {fileID: 400042, guid: 959d14bf134f54a6e993fe6ca6e063c0, type: 3}
  m_PrefabInternal: {fileID: 0}
  m_GameObject: {fileID: 616309834}
  m_LocalRotation: {x: -0.000000015454312, y: 0.000000015454312, z: -0.7071068, w: 0.7071068}
  m_LocalPosition: {x: -0.06716837, y: 0.13374838, z: 0}
  m_LocalScale: {x: 1, y: 1, z: 1}
  m_Children:
  - {fileID: 735144625}
  m_Father: {fileID: 1099702038}
  m_RootOrder: 0
  m_LocalEulerAnglesHint: {x: 0, y: 0, z: 0}
--- !u!1 &658557584
GameObject:
  m_ObjectHideFlags: 0
  m_PrefabParentObject: {fileID: 100058, guid: 959d14bf134f54a6e993fe6ca6e063c0, type: 3}
  m_PrefabInternal: {fileID: 0}
  serializedVersion: 5
  m_Component:
  - component: {fileID: 658557585}
  m_Layer: 0
  m_Name: BipDummy
  m_TagString: Untagged
  m_Icon: {fileID: 0}
  m_NavMeshLayer: 0
  m_StaticEditorFlags: 0
  m_IsActive: 1
--- !u!4 &658557585
Transform:
  m_ObjectHideFlags: 0
  m_PrefabParentObject: {fileID: 400058, guid: 959d14bf134f54a6e993fe6ca6e063c0, type: 3}
  m_PrefabInternal: {fileID: 0}
  m_GameObject: {fileID: 658557584}
  m_LocalRotation: {x: -0.50000054, y: 0.49999946, z: 0.49999946, w: 0.50000054}
  m_LocalPosition: {x: -1.4901162e-10, y: 0.89560544, z: -0.0034221578}
  m_LocalScale: {x: 1, y: 1, z: 1}
  m_Children:
  - {fileID: 1352777734}
  m_Father: {fileID: 2042317381}
  m_RootOrder: 0
  m_LocalEulerAnglesHint: {x: 0, y: 0, z: 0}
--- !u!1 &677241740
GameObject:
  m_ObjectHideFlags: 0
  m_PrefabParentObject: {fileID: 100018, guid: 959d14bf134f54a6e993fe6ca6e063c0, type: 3}
  m_PrefabInternal: {fileID: 0}
  serializedVersion: 5
  m_Component:
  - component: {fileID: 677241741}
  m_Layer: 0
  m_Name: Bip002 L Toe01
  m_TagString: Untagged
  m_Icon: {fileID: 0}
  m_NavMeshLayer: 0
  m_StaticEditorFlags: 0
  m_IsActive: 1
--- !u!4 &677241741
Transform:
  m_ObjectHideFlags: 0
  m_PrefabParentObject: {fileID: 400018, guid: 959d14bf134f54a6e993fe6ca6e063c0, type: 3}
  m_PrefabInternal: {fileID: 0}
  m_GameObject: {fileID: 677241740}
  m_LocalRotation: {x: 0, y: -9.407548e-16, z: -0, w: 1}
  m_LocalPosition: {x: -0.012151627, y: 0, z: 0}
  m_LocalScale: {x: 1, y: 1, z: 1}
  m_Children:
  - {fileID: 1976622954}
  m_Father: {fileID: 1873609688}
  m_RootOrder: 0
  m_LocalEulerAnglesHint: {x: 0, y: 0, z: 0}
--- !u!1 &735144624
GameObject:
  m_ObjectHideFlags: 0
  m_PrefabParentObject: {fileID: 100044, guid: 959d14bf134f54a6e993fe6ca6e063c0, type: 3}
  m_PrefabInternal: {fileID: 0}
  serializedVersion: 5
  m_Component:
  - component: {fileID: 735144625}
  m_Layer: 0
  m_Name: Bip002 R Toe01
  m_TagString: Untagged
  m_Icon: {fileID: 0}
  m_NavMeshLayer: 0
  m_StaticEditorFlags: 0
  m_IsActive: 1
--- !u!4 &735144625
Transform:
  m_ObjectHideFlags: 0
  m_PrefabParentObject: {fileID: 400044, guid: 959d14bf134f54a6e993fe6ca6e063c0, type: 3}
  m_PrefabInternal: {fileID: 0}
  m_GameObject: {fileID: 735144624}
  m_LocalRotation: {x: 0, y: -1.0418551e-15, z: -0, w: 1}
  m_LocalPosition: {x: -0.012151627, y: 0, z: 0}
  m_LocalScale: {x: 1, y: 1, z: 1}
  m_Children:
  - {fileID: 1557506988}
  m_Father: {fileID: 616309835}
  m_RootOrder: 0
  m_LocalEulerAnglesHint: {x: 0, y: 0, z: 0}
--- !u!1 &747414013
GameObject:
  m_ObjectHideFlags: 0
  m_PrefabParentObject: {fileID: 100038, guid: 959d14bf134f54a6e993fe6ca6e063c0, type: 3}
  m_PrefabInternal: {fileID: 0}
  serializedVersion: 5
  m_Component:
  - component: {fileID: 747414014}
  m_Layer: 0
  m_Name: Bip002 R Hand
  m_TagString: Untagged
  m_Icon: {fileID: 0}
  m_NavMeshLayer: 0
  m_StaticEditorFlags: 0
  m_IsActive: 1
--- !u!4 &747414014
Transform:
  m_ObjectHideFlags: 0
  m_PrefabParentObject: {fileID: 400038, guid: 959d14bf134f54a6e993fe6ca6e063c0, type: 3}
  m_PrefabInternal: {fileID: 0}
  m_GameObject: {fileID: 747414013}
  m_LocalRotation: {x: 0.72127545, y: 0.08105711, z: 0.07682161, w: 0.68358606}
  m_LocalPosition: {x: -0.2430326, y: 0.00000003051758, z: -0.00000006103516}
  m_LocalScale: {x: 0.99999994, y: 1, z: 0.99999994}
  m_Children:
  - {fileID: 1476626230}
  - {fileID: 6467330}
  - {fileID: 2078119364}
  - {fileID: 259321499}
  - {fileID: 328188907}
  - {fileID: 307773728}
  m_Father: {fileID: 1533126750}
  m_RootOrder: 0
  m_LocalEulerAnglesHint: {x: 0, y: 0, z: 0}
--- !u!1 &788304568
GameObject:
  m_ObjectHideFlags: 0
  m_PrefabParentObject: {fileID: 100114, guid: 959d14bf134f54a6e993fe6ca6e063c0, type: 3}
  m_PrefabInternal: {fileID: 0}
  serializedVersion: 5
  m_Component:
  - component: {fileID: 788304569}
  m_Layer: 0
  m_Name: BipDummy R Finger42
  m_TagString: Untagged
  m_Icon: {fileID: 0}
  m_NavMeshLayer: 0
  m_StaticEditorFlags: 0
  m_IsActive: 1
--- !u!4 &788304569
Transform:
  m_ObjectHideFlags: 0
  m_PrefabParentObject: {fileID: 400114, guid: 959d14bf134f54a6e993fe6ca6e063c0, type: 3}
  m_PrefabInternal: {fileID: 0}
  m_GameObject: {fileID: 788304568}
  m_LocalRotation: {x: 0.00000002317485, y: -0.000000022827779, z: -0.35736334, w: 0.93396544}
  m_LocalPosition: {x: -0.018896058, y: 0, z: -0.00000001525879}
  m_LocalScale: {x: 1.0000001, y: 1, z: 0.99999994}
  m_Children: []
  m_Father: {fileID: 441399257}
  m_RootOrder: 0
  m_LocalEulerAnglesHint: {x: 0, y: 0, z: 0}
--- !u!1 &895364302
GameObject:
  m_ObjectHideFlags: 0
  m_PrefabParentObject: {fileID: 100048, guid: 959d14bf134f54a6e993fe6ca6e063c0, type: 3}
  m_PrefabInternal: {fileID: 0}
  serializedVersion: 5
  m_Component:
  - component: {fileID: 895364303}
  m_Layer: 0
  m_Name: Bip002 R UpperArm
  m_TagString: Untagged
  m_Icon: {fileID: 0}
  m_NavMeshLayer: 0
  m_StaticEditorFlags: 0
  m_IsActive: 1
--- !u!4 &895364303
Transform:
  m_ObjectHideFlags: 0
  m_PrefabParentObject: {fileID: 400048, guid: 959d14bf134f54a6e993fe6ca6e063c0, type: 3}
  m_PrefabInternal: {fileID: 0}
  m_GameObject: {fileID: 895364302}
  m_LocalRotation: {x: -0.39572957, y: 0.43531126, z: 0.033003364, w: 0.80796844}
  m_LocalPosition: {x: -0.17969485, y: 9.536744e-10, z: 0}
  m_LocalScale: {x: 1.0000001, y: 1.0000001, z: 1}
  m_Children:
  - {fileID: 1533126750}
  m_Father: {fileID: 2042110421}
  m_RootOrder: 0
  m_LocalEulerAnglesHint: {x: 0, y: 0, z: 0}
--- !u!1 &918966888
GameObject:
  m_ObjectHideFlags: 0
  m_PrefabParentObject: {fileID: 100054, guid: 959d14bf134f54a6e993fe6ca6e063c0, type: 3}
  m_PrefabInternal: {fileID: 0}
  serializedVersion: 5
  m_Component:
  - component: {fileID: 918966889}
  m_Layer: 0
  m_Name: Bip002 Spine2
  m_TagString: Untagged
  m_Icon: {fileID: 0}
  m_NavMeshLayer: 0
  m_StaticEditorFlags: 0
  m_IsActive: 1
--- !u!4 &918966889
Transform:
  m_ObjectHideFlags: 0
  m_PrefabParentObject: {fileID: 400054, guid: 959d14bf134f54a6e993fe6ca6e063c0, type: 3}
  m_PrefabInternal: {fileID: 0}
  m_GameObject: {fileID: 918966888}
  m_LocalRotation: {x: -8.096637e-15, y: 0.000000010320556, z: -0.0037209948, w: 0.9999931}
  m_LocalPosition: {x: -0.10531482, y: -0.00008385659, z: -2.3258327e-10}
  m_LocalScale: {x: 1, y: 1, z: 1}
  m_Children:
  - {fileID: 396859340}
  m_Father: {fileID: 1756926907}
  m_RootOrder: 0
  m_LocalEulerAnglesHint: {x: 0, y: 0, z: 0}
--- !u!1 &937113187
GameObject:
  m_ObjectHideFlags: 0
  m_PrefabParentObject: {fileID: 100086, guid: 959d14bf134f54a6e993fe6ca6e063c0, type: 3}
  m_PrefabInternal: {fileID: 0}
  serializedVersion: 5
  m_Component:
  - component: {fileID: 937113188}
  m_Layer: 0
  m_Name: BipDummy L Finger42
  m_TagString: Untagged
  m_Icon: {fileID: 0}
  m_NavMeshLayer: 0
  m_StaticEditorFlags: 0
  m_IsActive: 1
--- !u!4 &937113188
Transform:
  m_ObjectHideFlags: 0
  m_PrefabParentObject: {fileID: 400086, guid: 959d14bf134f54a6e993fe6ca6e063c0, type: 3}
  m_PrefabInternal: {fileID: 0}
  m_GameObject: {fileID: 937113187}
  m_LocalRotation: {x: 0.00000001644754, y: 0.00000001808565, z: -0.41532043, w: 0.90967524}
  m_LocalPosition: {x: -0.01889612, y: 0, z: 0.000000045776368}
  m_LocalScale: {x: 1, y: 1.0000001, z: 1}
  m_Children: []
  m_Father: {fileID: 127049623}
  m_RootOrder: 0
  m_LocalEulerAnglesHint: {x: 0, y: 0, z: 0}
--- !u!1 &987842907
GameObject:
  m_ObjectHideFlags: 0
  m_PrefabParentObject: {fileID: 0}
  m_PrefabInternal: {fileID: 0}
  serializedVersion: 5
  m_Component:
  - component: {fileID: 987842909}
  - component: {fileID: 987842908}
  m_Layer: 0
  m_Name: Directional light
  m_TagString: Untagged
  m_Icon: {fileID: 0}
  m_NavMeshLayer: 0
  m_StaticEditorFlags: 0
  m_IsActive: 1
--- !u!108 &987842908
Light:
  m_ObjectHideFlags: 0
  m_PrefabParentObject: {fileID: 0}
  m_PrefabInternal: {fileID: 0}
  m_GameObject: {fileID: 987842907}
  m_Enabled: 1
  serializedVersion: 8
  m_Type: 1
  m_Color: {r: 1, g: 1, b: 1, a: 1}
  m_Intensity: 1
  m_Range: 10
  m_SpotAngle: 30
  m_CookieSize: 10
  m_Shadows:
    m_Type: 2
    m_Resolution: -1
    m_CustomResolution: -1
    m_Strength: 1
    m_Bias: 0.05
    m_NormalBias: 0.4
    m_NearPlane: 0.2
  m_Cookie: {fileID: 0}
  m_DrawHalo: 0
  m_Flare: {fileID: 0}
  m_RenderMode: 0
  m_CullingMask:
    serializedVersion: 2
    m_Bits: 4294967295
  m_Lightmapping: 1
  m_AreaSize: {x: 1, y: 1}
  m_BounceIntensity: 1
  m_ColorTemperature: 6570
  m_UseColorTemperature: 0
  m_ShadowRadius: 0
  m_ShadowAngle: 0
--- !u!4 &987842909
Transform:
  m_ObjectHideFlags: 0
  m_PrefabParentObject: {fileID: 0}
  m_PrefabInternal: {fileID: 0}
  m_GameObject: {fileID: 987842907}
  m_LocalRotation: {x: -0.0040427675, y: -0.90626615, z: 0.4225993, w: -0.00866975}
  m_LocalPosition: {x: 0.2878244, y: 3.633855, z: 0.7286153}
  m_LocalScale: {x: 1, y: 1, z: 1}
  m_Children: []
  m_Father: {fileID: 0}
  m_RootOrder: 1
  m_LocalEulerAnglesHint: {x: 0, y: 0, z: 0}
--- !u!1 &1013175517
GameObject:
  m_ObjectHideFlags: 0
  m_PrefabParentObject: {fileID: 100108, guid: 959d14bf134f54a6e993fe6ca6e063c0, type: 3}
  m_PrefabInternal: {fileID: 0}
  serializedVersion: 5
  m_Component:
  - component: {fileID: 1013175518}
  m_Layer: 0
  m_Name: BipDummy R Finger32
  m_TagString: Untagged
  m_Icon: {fileID: 0}
  m_NavMeshLayer: 0
  m_StaticEditorFlags: 0
  m_IsActive: 1
--- !u!4 &1013175518
Transform:
  m_ObjectHideFlags: 0
  m_PrefabParentObject: {fileID: 400108, guid: 959d14bf134f54a6e993fe6ca6e063c0, type: 3}
  m_PrefabInternal: {fileID: 0}
  m_GameObject: {fileID: 1013175517}
  m_LocalRotation: {x: 0.000000014849564, y: -0.0000000022370685, z: -0.27046826,
    w: 0.9627289}
  m_LocalPosition: {x: -0.02278583, y: 0, z: -0.00000001525879}
  m_LocalScale: {x: 1, y: 1, z: 1}
  m_Children: []
  m_Father: {fileID: 432137718}
  m_RootOrder: 0
  m_LocalEulerAnglesHint: {x: 0, y: 0, z: 0}
--- !u!1 &1051052521
GameObject:
  m_ObjectHideFlags: 0
  m_PrefabParentObject: {fileID: 100010, guid: 959d14bf134f54a6e993fe6ca6e063c0, type: 3}
  m_PrefabInternal: {fileID: 0}
  serializedVersion: 5
  m_Component:
  - component: {fileID: 1051052522}
  m_Layer: 0
  m_Name: Bip002 L Forearm
  m_TagString: Untagged
  m_Icon: {fileID: 0}
  m_NavMeshLayer: 0
  m_StaticEditorFlags: 0
  m_IsActive: 1
--- !u!4 &1051052522
Transform:
  m_ObjectHideFlags: 0
  m_PrefabParentObject: {fileID: 400010, guid: 959d14bf134f54a6e993fe6ca6e063c0, type: 3}
  m_PrefabInternal: {fileID: 0}
  m_GameObject: {fileID: 1051052521}
  m_LocalRotation: {x: -0.000000030864356, y: 0.000000021855683, z: 0.28733003, w: 0.9578316}
  m_LocalPosition: {x: -0.2430326, y: 0.00000006103516, z: 0}
  m_LocalScale: {x: 1.0000001, y: 1.0000001, z: 1.0000001}
  m_Children:
  - {fileID: 1271917787}
  m_Father: {fileID: 1946610820}
  m_RootOrder: 0
  m_LocalEulerAnglesHint: {x: 0, y: 0, z: 0}
--- !u!1 &1099702037
GameObject:
  m_ObjectHideFlags: 0
  m_PrefabParentObject: {fileID: 100034, guid: 959d14bf134f54a6e993fe6ca6e063c0, type: 3}
  m_PrefabInternal: {fileID: 0}
  serializedVersion: 5
  m_Component:
  - component: {fileID: 1099702038}
  m_Layer: 0
  m_Name: Bip002 R Foot
  m_TagString: Untagged
  m_Icon: {fileID: 0}
  m_NavMeshLayer: 0
  m_StaticEditorFlags: 0
  m_IsActive: 1
--- !u!4 &1099702038
Transform:
  m_ObjectHideFlags: 0
  m_PrefabParentObject: {fileID: 400034, guid: 959d14bf134f54a6e993fe6ca6e063c0, type: 3}
  m_PrefabInternal: {fileID: 0}
  m_GameObject: {fileID: 1099702037}
  m_LocalRotation: {x: 0.045867775, y: -0.013275983, z: -0.10180175, w: 0.99365807}
  m_LocalPosition: {x: -0.41098925, y: -0.000000007629395, z: 0}
  m_LocalScale: {x: 1, y: 0.99999994, z: 0.99999994}
  m_Children:
  - {fileID: 616309835}
  m_Father: {fileID: 1618081541}
  m_RootOrder: 0
  m_LocalEulerAnglesHint: {x: 0, y: 0, z: 0}
--- !u!1 &1126697427
GameObject:
  m_ObjectHideFlags: 0
  m_PrefabParentObject: {fileID: 100096, guid: 959d14bf134f54a6e993fe6ca6e063c0, type: 3}
  m_PrefabInternal: {fileID: 0}
  serializedVersion: 5
  m_Component:
  - component: {fileID: 1126697428}
  m_Layer: 0
  m_Name: BipDummy R Finger12
  m_TagString: Untagged
  m_Icon: {fileID: 0}
  m_NavMeshLayer: 0
  m_StaticEditorFlags: 0
  m_IsActive: 1
--- !u!4 &1126697428
Transform:
  m_ObjectHideFlags: 0
  m_PrefabParentObject: {fileID: 400096, guid: 959d14bf134f54a6e993fe6ca6e063c0, type: 3}
  m_PrefabInternal: {fileID: 0}
  m_GameObject: {fileID: 1126697427}
  m_LocalRotation: {x: 0.0000000045875606, y: 0.000000021875893, z: -0.20524399, w: 0.97871083}
  m_LocalPosition: {x: -0.01876288, y: -0.000000045776368, z: 0.00000001525879}
  m_LocalScale: {x: 1, y: 0.99999994, z: 0.99999994}
  m_Children: []
  m_Father: {fileID: 1736060480}
  m_RootOrder: 0
  m_LocalEulerAnglesHint: {x: 0, y: 0, z: 0}
--- !u!1 &1179610122
GameObject:
  m_ObjectHideFlags: 0
  m_PrefabParentObject: {fileID: 100006, guid: 959d14bf134f54a6e993fe6ca6e063c0, type: 3}
  m_PrefabInternal: {fileID: 0}
  serializedVersion: 5
  m_Component:
  - component: {fileID: 1179610123}
  m_Layer: 0
  m_Name: Bip002 L Finger0
  m_TagString: Untagged
  m_Icon: {fileID: 0}
  m_NavMeshLayer: 0
  m_StaticEditorFlags: 0
  m_IsActive: 1
--- !u!4 &1179610123
Transform:
  m_ObjectHideFlags: 0
  m_PrefabParentObject: {fileID: 400006, guid: 959d14bf134f54a6e993fe6ca6e063c0, type: 3}
  m_PrefabInternal: {fileID: 0}
  m_GameObject: {fileID: 1179610122}
  m_LocalRotation: {x: 0.40023914, y: -0.27571434, z: 0.056018174, w: 0.87215376}
  m_LocalPosition: {x: -0.042638857, y: 0.010434205, z: -0.028118744}
  m_LocalScale: {x: 1.0000001, y: 1, z: 0.9999999}
  m_Children:
  - {fileID: 1560817817}
  m_Father: {fileID: 1271917787}
  m_RootOrder: 0
  m_LocalEulerAnglesHint: {x: 0, y: 0, z: 0}
--- !u!1 &1216856523
GameObject:
  m_ObjectHideFlags: 0
  m_PrefabParentObject: {fileID: 100064, guid: 959d14bf134f54a6e993fe6ca6e063c0, type: 3}
  m_PrefabInternal: {fileID: 0}
  serializedVersion: 5
  m_Component:
  - component: {fileID: 1216856524}
  m_Layer: 0
  m_Name: BipDummy L Finger1
  m_TagString: Untagged
  m_Icon: {fileID: 0}
  m_NavMeshLayer: 0
  m_StaticEditorFlags: 0
  m_IsActive: 1
--- !u!4 &1216856524
Transform:
  m_ObjectHideFlags: 0
  m_PrefabParentObject: {fileID: 400064, guid: 959d14bf134f54a6e993fe6ca6e063c0, type: 3}
  m_PrefabInternal: {fileID: 0}
  m_GameObject: {fileID: 1216856523}
  m_LocalRotation: {x: -0.00039683317, y: -0.00003227424, z: -0.081061095, w: 0.99670905}
  m_LocalPosition: {x: -0.1003982, y: -0.003286377, z: -0.022277009}
  m_LocalScale: {x: 1, y: 0.99999994, z: 0.99999994}
  m_Children:
  - {fileID: 1337234897}
  m_Father: {fileID: 1271917787}
  m_RootOrder: 1
  m_LocalEulerAnglesHint: {x: 0, y: 0, z: 0}
--- !u!1 &1271917786
GameObject:
  m_ObjectHideFlags: 0
  m_PrefabParentObject: {fileID: 100012, guid: 959d14bf134f54a6e993fe6ca6e063c0, type: 3}
  m_PrefabInternal: {fileID: 0}
  serializedVersion: 5
  m_Component:
  - component: {fileID: 1271917787}
  m_Layer: 0
  m_Name: Bip002 L Hand
  m_TagString: Untagged
  m_Icon: {fileID: 0}
  m_NavMeshLayer: 0
  m_StaticEditorFlags: 0
  m_IsActive: 1
--- !u!4 &1271917787
Transform:
  m_ObjectHideFlags: 0
  m_PrefabParentObject: {fileID: 400012, guid: 959d14bf134f54a6e993fe6ca6e063c0, type: 3}
  m_PrefabInternal: {fileID: 0}
  m_GameObject: {fileID: 1271917786}
  m_LocalRotation: {x: -0.7212754, y: -0.08105717, z: 0.07682164, w: 0.6835861}
  m_LocalPosition: {x: -0.2430326, y: -0.00000003051758, z: 0}
  m_LocalScale: {x: 1, y: 1, z: 1.0000001}
  m_Children:
  - {fileID: 1179610123}
  - {fileID: 1216856524}
  - {fileID: 1546587122}
  - {fileID: 2059630897}
  - {fileID: 320817098}
  m_Father: {fileID: 1051052522}
  m_RootOrder: 0
  m_LocalEulerAnglesHint: {x: 0, y: 0, z: 0}
--- !u!1 &1289054467
GameObject:
  m_ObjectHideFlags: 0
  m_PrefabParentObject: {fileID: 100080, guid: 959d14bf134f54a6e993fe6ca6e063c0, type: 3}
  m_PrefabInternal: {fileID: 0}
  serializedVersion: 5
  m_Component:
  - component: {fileID: 1289054468}
  m_Layer: 0
  m_Name: BipDummy L Finger32
  m_TagString: Untagged
  m_Icon: {fileID: 0}
  m_NavMeshLayer: 0
  m_StaticEditorFlags: 0
  m_IsActive: 1
--- !u!4 &1289054468
Transform:
  m_ObjectHideFlags: 0
  m_PrefabParentObject: {fileID: 400080, guid: 959d14bf134f54a6e993fe6ca6e063c0, type: 3}
  m_PrefabInternal: {fileID: 0}
  m_GameObject: {fileID: 1289054467}
  m_LocalRotation: {x: -0.000000023906223, y: -0.000000025557926, z: -0.30713028,
    w: 0.9516675}
  m_LocalPosition: {x: -0.02278595, y: -0.00000001525879, z: 0}
  m_LocalScale: {x: 0.9999999, y: 0.99999994, z: 0.99999994}
  m_Children: []
  m_Father: {fileID: 1553336731}
  m_RootOrder: 0
  m_LocalEulerAnglesHint: {x: 0, y: 0, z: 0}
--- !u!1 &1329598302
GameObject:
  m_ObjectHideFlags: 0
  m_PrefabParentObject: {fileID: 100004, guid: 959d14bf134f54a6e993fe6ca6e063c0, type: 3}
  m_PrefabInternal: {fileID: 0}
  serializedVersion: 5
  m_Component:
  - component: {fileID: 1329598303}
  m_Layer: 0
  m_Name: Bip002 L Clavicle
  m_TagString: Untagged
  m_Icon: {fileID: 0}
  m_NavMeshLayer: 0
  m_StaticEditorFlags: 0
  m_IsActive: 1
--- !u!4 &1329598303
Transform:
  m_ObjectHideFlags: 0
  m_PrefabParentObject: {fileID: 400004, guid: 959d14bf134f54a6e993fe6ca6e063c0, type: 3}
  m_PrefabInternal: {fileID: 0}
  m_GameObject: {fileID: 1329598302}
  m_LocalRotation: {x: -0.69003224, y: -0.10505305, z: 0.7079568, w: -0.10778003}
  m_LocalPosition: {x: -0, y: 0.000108856206, z: 0.028353818}
  m_LocalScale: {x: 1, y: 1, z: 1}
  m_Children:
  - {fileID: 1946610820}
  m_Father: {fileID: 2061228840}
  m_RootOrder: 1
  m_LocalEulerAnglesHint: {x: 0, y: 0, z: 0}
--- !u!1 &1337234896
GameObject:
  m_ObjectHideFlags: 0
  m_PrefabParentObject: {fileID: 100066, guid: 959d14bf134f54a6e993fe6ca6e063c0, type: 3}
  m_PrefabInternal: {fileID: 0}
  serializedVersion: 5
  m_Component:
  - component: {fileID: 1337234897}
  m_Layer: 0
  m_Name: BipDummy L Finger11
  m_TagString: Untagged
  m_Icon: {fileID: 0}
  m_NavMeshLayer: 0
  m_StaticEditorFlags: 0
  m_IsActive: 1
--- !u!4 &1337234897
Transform:
  m_ObjectHideFlags: 0
  m_PrefabParentObject: {fileID: 400066, guid: 959d14bf134f54a6e993fe6ca6e063c0, type: 3}
  m_PrefabInternal: {fileID: 0}
  m_GameObject: {fileID: 1337234896}
  m_LocalRotation: {x: -0.00000004303571, y: 0.000000014207038, z: -0.15310442, w: 0.98821}
  m_LocalPosition: {x: -0.047266666, y: 0, z: 0.00000003051758}
  m_LocalScale: {x: 1.0000001, y: 1.0000001, z: 1}
  m_Children:
  - {fileID: 1983198958}
  m_Father: {fileID: 1216856524}
  m_RootOrder: 0
  m_LocalEulerAnglesHint: {x: 0, y: 0, z: 0}
--- !u!1 &1352777733
GameObject:
  m_ObjectHideFlags: 0
  m_PrefabParentObject: {fileID: 100026, guid: 959d14bf134f54a6e993fe6ca6e063c0, type: 3}
  m_PrefabInternal: {fileID: 0}
  serializedVersion: 5
  m_Component:
  - component: {fileID: 1352777734}
  m_Layer: 0
  m_Name: Bip002 Pelvis
  m_TagString: Untagged
  m_Icon: {fileID: 0}
  m_NavMeshLayer: 0
  m_StaticEditorFlags: 0
  m_IsActive: 1
--- !u!4 &1352777734
Transform:
  m_ObjectHideFlags: 0
  m_PrefabParentObject: {fileID: 400026, guid: 959d14bf134f54a6e993fe6ca6e063c0, type: 3}
  m_PrefabInternal: {fileID: 0}
  m_GameObject: {fileID: 1352777733}
  m_LocalRotation: {x: -0.49999964, y: 0.50000036, z: 0.49999964, w: 0.50000036}
  m_LocalPosition: {x: 0, y: 0, z: 0}
  m_LocalScale: {x: 1, y: 1, z: 1}
  m_Children:
  - {fileID: 2068172140}
  m_Father: {fileID: 658557585}
  m_RootOrder: 0
  m_LocalEulerAnglesHint: {x: 0, y: 0, z: 0}
--- !u!1 &1363997987
GameObject:
  m_ObjectHideFlags: 0
  m_PrefabParentObject: {fileID: 0}
  m_PrefabInternal: {fileID: 0}
  serializedVersion: 5
  m_Component:
  - component: {fileID: 1363997988}
  - component: {fileID: 1363997991}
  - component: {fileID: 1363997989}
  m_Layer: 0
  m_Name: Laser1
  m_TagString: Untagged
  m_Icon: {fileID: 0}
  m_NavMeshLayer: 0
  m_StaticEditorFlags: 0
  m_IsActive: 1
--- !u!4 &1363997988
Transform:
  m_ObjectHideFlags: 0
  m_PrefabParentObject: {fileID: 0}
  m_PrefabInternal: {fileID: 0}
  m_GameObject: {fileID: 1363997987}
  m_LocalRotation: {x: 0.7071069, y: 0, z: 0, w: 0.70710677}
  m_LocalPosition: {x: 0, y: -5.5, z: 0}
  m_LocalScale: {x: 0.001, y: 1, z: 1}
  m_Children: []
  m_Father: {fileID: 189356423}
  m_RootOrder: 0
  m_LocalEulerAnglesHint: {x: 0, y: 0, z: 0}
--- !u!23 &1363997989
MeshRenderer:
  m_ObjectHideFlags: 0
  m_PrefabParentObject: {fileID: 0}
  m_PrefabInternal: {fileID: 0}
  m_GameObject: {fileID: 1363997987}
  m_Enabled: 1
  m_CastShadows: 0
  m_ReceiveShadows: 0
  m_DynamicOccludee: 1
  m_MotionVectors: 1
  m_LightProbeUsage: 0
  m_ReflectionProbeUsage: 1
  m_Materials:
  - {fileID: 2100000, guid: 440d6a9870aca7b4d94eebb649da8773, type: 2}
  m_StaticBatchInfo:
    firstSubMesh: 0
    subMeshCount: 0
  m_StaticBatchRoot: {fileID: 0}
  m_ProbeAnchor: {fileID: 0}
  m_LightProbeVolumeOverride: {fileID: 0}
  m_ScaleInLightmap: 1
  m_PreserveUVs: 0
  m_IgnoreNormalsForChartDetection: 0
  m_ImportantGI: 0
  m_StitchLightmapSeams: 0
  m_SelectedEditorRenderState: 3
  m_MinimumChartSize: 4
  m_AutoUVMaxDistance: 0.5
  m_AutoUVMaxAngle: 89
  m_LightmapParameters: {fileID: 0}
  m_SortingLayerID: 0
  m_SortingLayer: 0
  m_SortingOrder: 0
--- !u!33 &1363997991
MeshFilter:
  m_ObjectHideFlags: 0
  m_PrefabParentObject: {fileID: 0}
  m_PrefabInternal: {fileID: 0}
  m_GameObject: {fileID: 1363997987}
  m_Mesh: {fileID: 10209, guid: 0000000000000000e000000000000000, type: 0}
--- !u!1 &1449716074
GameObject:
  m_ObjectHideFlags: 0
  m_PrefabParentObject: {fileID: 100000, guid: 959d14bf134f54a6e993fe6ca6e063c0, type: 3}
  m_PrefabInternal: {fileID: 0}
  serializedVersion: 5
  m_Component:
  - component: {fileID: 1449716075}
  m_Layer: 0
  m_Name: Bip002 Head
  m_TagString: Untagged
  m_Icon: {fileID: 0}
  m_NavMeshLayer: 0
  m_StaticEditorFlags: 0
  m_IsActive: 1
--- !u!4 &1449716075
Transform:
  m_ObjectHideFlags: 0
  m_PrefabParentObject: {fileID: 400000, guid: 959d14bf134f54a6e993fe6ca6e063c0, type: 3}
  m_PrefabInternal: {fileID: 0}
  m_GameObject: {fileID: 1449716074}
  m_LocalRotation: {x: 4.7719963e-11, y: -0.00000040002516, z: 0.14414449, w: 0.98955667}
  m_LocalPosition: {x: -0.1367727, y: 0, z: 1.1641533e-13}
  m_LocalScale: {x: 1.0000001, y: 1.0000001, z: 1}
  m_Children: []
  m_Father: {fileID: 2061228840}
  m_RootOrder: 0
  m_LocalEulerAnglesHint: {x: 0, y: 0, z: 0}
--- !u!1 &1476626229
GameObject:
  m_ObjectHideFlags: 0
  m_PrefabParentObject: {fileID: 100032, guid: 959d14bf134f54a6e993fe6ca6e063c0, type: 3}
  m_PrefabInternal: {fileID: 0}
  serializedVersion: 5
  m_Component:
  - component: {fileID: 1476626230}
  m_Layer: 0
  m_Name: Bip002 R Finger0
  m_TagString: Untagged
  m_Icon: {fileID: 0}
  m_NavMeshLayer: 0
  m_StaticEditorFlags: 0
  m_IsActive: 1
--- !u!4 &1476626230
Transform:
  m_ObjectHideFlags: 0
  m_PrefabParentObject: {fileID: 400032, guid: 959d14bf134f54a6e993fe6ca6e063c0, type: 3}
  m_PrefabInternal: {fileID: 0}
  m_GameObject: {fileID: 1476626229}
  m_LocalRotation: {x: -0.4061612, y: 0.2668805, z: 0.03686745, w: 0.8731831}
  m_LocalPosition: {x: -0.04263898, y: 0.010434327, z: 0.0281187}
  m_LocalScale: {x: 1.0000001, y: 1, z: 0.9999999}
  m_Children:
  - {fileID: 1493159008}
  m_Father: {fileID: 747414014}
  m_RootOrder: 0
  m_LocalEulerAnglesHint: {x: 0, y: 0, z: 0}
--- !u!1 &1493159007
GameObject:
  m_ObjectHideFlags: 0
  m_PrefabParentObject: {fileID: 100088, guid: 959d14bf134f54a6e993fe6ca6e063c0, type: 3}
  m_PrefabInternal: {fileID: 0}
  serializedVersion: 5
  m_Component:
  - component: {fileID: 1493159008}
  m_Layer: 0
  m_Name: BipDummy R Finger01
  m_TagString: Untagged
  m_Icon: {fileID: 0}
  m_NavMeshLayer: 0
  m_StaticEditorFlags: 0
  m_IsActive: 1
--- !u!4 &1493159008
Transform:
  m_ObjectHideFlags: 0
  m_PrefabParentObject: {fileID: 400088, guid: 959d14bf134f54a6e993fe6ca6e063c0, type: 3}
  m_PrefabInternal: {fileID: 0}
  m_GameObject: {fileID: 1493159007}
  m_LocalRotation: {x: -0.0000000054362164, y: 0.0000000012932826, z: -0.23144192,
    w: 0.9728487}
  m_LocalPosition: {x: -0.028966065, y: 0.00000003051758, z: 0}
  m_LocalScale: {x: 1, y: 0.99999994, z: 1}
  m_Children:
  - {fileID: 132010119}
  m_Father: {fileID: 1476626230}
  m_RootOrder: 0
  m_LocalEulerAnglesHint: {x: 0, y: 0, z: 0}
--- !u!1 &1533126749
GameObject:
  m_ObjectHideFlags: 0
  m_PrefabParentObject: {fileID: 100036, guid: 959d14bf134f54a6e993fe6ca6e063c0, type: 3}
  m_PrefabInternal: {fileID: 0}
  serializedVersion: 5
  m_Component:
  - component: {fileID: 1533126750}
  m_Layer: 0
  m_Name: Bip002 R Forearm
  m_TagString: Untagged
  m_Icon: {fileID: 0}
  m_NavMeshLayer: 0
  m_StaticEditorFlags: 0
  m_IsActive: 1
--- !u!4 &1533126750
Transform:
  m_ObjectHideFlags: 0
  m_PrefabParentObject: {fileID: 400036, guid: 959d14bf134f54a6e993fe6ca6e063c0, type: 3}
  m_PrefabInternal: {fileID: 0}
  m_GameObject: {fileID: 1533126749}
  m_LocalRotation: {x: -0.000000024085356, y: -0.0000000072251183, z: 0.28733006,
    w: 0.9578316}
  m_LocalPosition: {x: -0.24303266, y: 0, z: 0}
  m_LocalScale: {x: 1, y: 1, z: 1}
  m_Children:
  - {fileID: 747414014}
  m_Father: {fileID: 895364303}
  m_RootOrder: 0
  m_LocalEulerAnglesHint: {x: 0, y: 0, z: 0}
--- !u!1 &1546587121
GameObject:
  m_ObjectHideFlags: 0
  m_PrefabParentObject: {fileID: 100070, guid: 959d14bf134f54a6e993fe6ca6e063c0, type: 3}
  m_PrefabInternal: {fileID: 0}
  serializedVersion: 5
  m_Component:
  - component: {fileID: 1546587122}
  m_Layer: 0
  m_Name: BipDummy L Finger2
  m_TagString: Untagged
  m_Icon: {fileID: 0}
  m_NavMeshLayer: 0
  m_StaticEditorFlags: 0
  m_IsActive: 1
--- !u!4 &1546587122
Transform:
  m_ObjectHideFlags: 0
  m_PrefabParentObject: {fileID: 400070, guid: 959d14bf134f54a6e993fe6ca6e063c0, type: 3}
  m_PrefabInternal: {fileID: 0}
  m_GameObject: {fileID: 1546587121}
  m_LocalRotation: {x: -0.001918456, y: 0.023514757, z: -0.14601779, w: 0.9890006}
  m_LocalPosition: {x: -0.10838886, y: -0.005206055, z: -0.00035929872}
  m_LocalScale: {x: 1, y: 1.0000001, z: 1.0000001}
  m_Children:
  - {fileID: 340078630}
  m_Father: {fileID: 1271917787}
  m_RootOrder: 2
  m_LocalEulerAnglesHint: {x: 0, y: 0, z: 0}
--- !u!1 &1553336730
GameObject:
  m_ObjectHideFlags: 0
  m_PrefabParentObject: {fileID: 100078, guid: 959d14bf134f54a6e993fe6ca6e063c0, type: 3}
  m_PrefabInternal: {fileID: 0}
  serializedVersion: 5
  m_Component:
  - component: {fileID: 1553336731}
  m_Layer: 0
  m_Name: BipDummy L Finger31
  m_TagString: Untagged
  m_Icon: {fileID: 0}
  m_NavMeshLayer: 0
  m_StaticEditorFlags: 0
  m_IsActive: 1
--- !u!4 &1553336731
Transform:
  m_ObjectHideFlags: 0
  m_PrefabParentObject: {fileID: 400078, guid: 959d14bf134f54a6e993fe6ca6e063c0, type: 3}
  m_PrefabInternal: {fileID: 0}
  m_GameObject: {fileID: 1553336730}
  m_LocalRotation: {x: 0.0000000026053375, y: -0.0000000045790607, z: -0.26490858,
    w: 0.9642736}
  m_LocalPosition: {x: -0.040773623, y: 0.00000003051758, z: 0.00000001525879}
  m_LocalScale: {x: 1, y: 1.0000001, z: 1.0000001}
  m_Children:
  - {fileID: 1289054468}
  m_Father: {fileID: 2059630897}
  m_RootOrder: 0
  m_LocalEulerAnglesHint: {x: 0, y: 0, z: 0}
--- !u!1 &1557506987
GameObject:
  m_ObjectHideFlags: 0
  m_PrefabParentObject: {fileID: 100046, guid: 959d14bf134f54a6e993fe6ca6e063c0, type: 3}
  m_PrefabInternal: {fileID: 0}
  serializedVersion: 5
  m_Component:
  - component: {fileID: 1557506988}
  m_Layer: 0
  m_Name: Bip002 R Toe02
  m_TagString: Untagged
  m_Icon: {fileID: 0}
  m_NavMeshLayer: 0
  m_StaticEditorFlags: 0
  m_IsActive: 1
--- !u!4 &1557506988
Transform:
  m_ObjectHideFlags: 0
  m_PrefabParentObject: {fileID: 400046, guid: 959d14bf134f54a6e993fe6ca6e063c0, type: 3}
  m_PrefabInternal: {fileID: 0}
  m_GameObject: {fileID: 1557506987}
  m_LocalRotation: {x: 0, y: -1.0418551e-15, z: -0, w: 1}
  m_LocalPosition: {x: -0.012151635, y: 0, z: 0}
  m_LocalScale: {x: 1, y: 1, z: 1}
  m_Children: []
  m_Father: {fileID: 735144625}
  m_RootOrder: 0
  m_LocalEulerAnglesHint: {x: 0, y: 0, z: 0}
--- !u!1 &1560817816
GameObject:
  m_ObjectHideFlags: 0
  m_PrefabParentObject: {fileID: 100060, guid: 959d14bf134f54a6e993fe6ca6e063c0, type: 3}
  m_PrefabInternal: {fileID: 0}
  serializedVersion: 5
  m_Component:
  - component: {fileID: 1560817817}
  m_Layer: 0
  m_Name: BipDummy L Finger01
  m_TagString: Untagged
  m_Icon: {fileID: 0}
  m_NavMeshLayer: 0
  m_StaticEditorFlags: 0
  m_IsActive: 1
--- !u!4 &1560817817
Transform:
  m_ObjectHideFlags: 0
  m_PrefabParentObject: {fileID: 400060, guid: 959d14bf134f54a6e993fe6ca6e063c0, type: 3}
  m_PrefabInternal: {fileID: 0}
  m_GameObject: {fileID: 1560817816}
  m_LocalRotation: {x: 0, y: 0, z: -0.24637195, w: 0.9691754}
  m_LocalPosition: {x: -0.028966127, y: 0, z: -0.00000003051758}
  m_LocalScale: {x: 1.0000001, y: 1.0000001, z: 1}
  m_Children:
  - {fileID: 102043099}
  m_Father: {fileID: 1179610123}
  m_RootOrder: 0
  m_LocalEulerAnglesHint: {x: 0, y: 0, z: 0}
--- !u!1 &1618081540
GameObject:
  m_ObjectHideFlags: 0
  m_PrefabParentObject: {fileID: 100028, guid: 959d14bf134f54a6e993fe6ca6e063c0, type: 3}
  m_PrefabInternal: {fileID: 0}
  serializedVersion: 5
  m_Component:
  - component: {fileID: 1618081541}
  m_Layer: 0
  m_Name: Bip002 R Calf
  m_TagString: Untagged
  m_Icon: {fileID: 0}
  m_NavMeshLayer: 0
  m_StaticEditorFlags: 0
  m_IsActive: 1
--- !u!4 &1618081541
Transform:
  m_ObjectHideFlags: 0
  m_PrefabParentObject: {fileID: 400028, guid: 959d14bf134f54a6e993fe6ca6e063c0, type: 3}
  m_PrefabInternal: {fileID: 0}
  m_GameObject: {fileID: 1618081540}
  m_LocalRotation: {x: -2.2306051e-10, y: -0.000000001906969, z: 0.12818292, w: 0.99175054}
  m_LocalPosition: {x: -0.42230672, y: 0, z: 0}
  m_LocalScale: {x: 1, y: 1, z: 0.99999994}
  m_Children:
  - {fileID: 1099702038}
  m_Father: {fileID: 147244218}
  m_RootOrder: 0
  m_LocalEulerAnglesHint: {x: 0, y: 0, z: 0}
--- !u!1 &1736060479
GameObject:
  m_ObjectHideFlags: 0
  m_PrefabParentObject: {fileID: 100094, guid: 959d14bf134f54a6e993fe6ca6e063c0, type: 3}
  m_PrefabInternal: {fileID: 0}
  serializedVersion: 5
  m_Component:
  - component: {fileID: 1736060480}
  m_Layer: 0
  m_Name: BipDummy R Finger11
  m_TagString: Untagged
  m_Icon: {fileID: 0}
  m_NavMeshLayer: 0
  m_StaticEditorFlags: 0
  m_IsActive: 1
--- !u!4 &1736060480
Transform:
  m_ObjectHideFlags: 0
  m_PrefabParentObject: {fileID: 400094, guid: 959d14bf134f54a6e993fe6ca6e063c0, type: 3}
  m_PrefabInternal: {fileID: 0}
  m_GameObject: {fileID: 1736060479}
  m_LocalRotation: {x: 0.000000001861105, y: -7.57366e-11, z: -0.040660772, w: 0.99917305}
  m_LocalPosition: {x: -0.047266603, y: 0.00000001525879, z: -0.00000001525879}
  m_LocalScale: {x: 0.99999994, y: 0.99999994, z: 0.99999994}
  m_Children:
  - {fileID: 1126697428}
  m_Father: {fileID: 6467330}
  m_RootOrder: 0
  m_LocalEulerAnglesHint: {x: 0, y: 0, z: 0}
--- !u!1 &1754976964
GameObject:
  m_ObjectHideFlags: 0
  m_PrefabParentObject: {fileID: 100116, guid: 959d14bf134f54a6e993fe6ca6e063c0, type: 3}
  m_PrefabInternal: {fileID: 0}
  serializedVersion: 5
  m_Component:
  - component: {fileID: 1754976965}
  - component: {fileID: 1754976966}
  m_Layer: 0
  m_Name: Dummy
  m_TagString: Untagged
  m_Icon: {fileID: 0}
  m_NavMeshLayer: 0
  m_StaticEditorFlags: 0
  m_IsActive: 1
--- !u!4 &1754976965
Transform:
  m_ObjectHideFlags: 0
  m_PrefabParentObject: {fileID: 400116, guid: 959d14bf134f54a6e993fe6ca6e063c0, type: 3}
  m_PrefabInternal: {fileID: 0}
  m_GameObject: {fileID: 1754976964}
  m_LocalRotation: {x: 0.000000021855694, y: 0, z: 0, w: 1}
  m_LocalPosition: {x: 0, y: 0, z: 0}
  m_LocalScale: {x: 1.9103826, y: 1.9103826, z: 1.9103826}
  m_Children: []
  m_Father: {fileID: 2042317381}
  m_RootOrder: 1
  m_LocalEulerAnglesHint: {x: 0, y: 0, z: 0}
--- !u!137 &1754976966
SkinnedMeshRenderer:
  m_ObjectHideFlags: 0
  m_PrefabParentObject: {fileID: 13700000, guid: 959d14bf134f54a6e993fe6ca6e063c0,
    type: 3}
  m_PrefabInternal: {fileID: 0}
  m_GameObject: {fileID: 1754976964}
  m_Enabled: 1
  m_CastShadows: 1
  m_ReceiveShadows: 1
  m_DynamicOccludee: 1
  m_MotionVectors: 1
  m_LightProbeUsage: 1
  m_ReflectionProbeUsage: 1
  m_Materials:
  - {fileID: 2100000, guid: 8a758f41de96147d29c0b9d92ce2a3c5, type: 2}
  m_StaticBatchInfo:
    firstSubMesh: 0
    subMeshCount: 0
  m_StaticBatchRoot: {fileID: 0}
  m_ProbeAnchor: {fileID: 0}
  m_LightProbeVolumeOverride: {fileID: 0}
  m_ScaleInLightmap: 1
  m_PreserveUVs: 0
  m_IgnoreNormalsForChartDetection: 0
  m_ImportantGI: 0
  m_StitchLightmapSeams: 0
  m_SelectedEditorRenderState: 3
  m_MinimumChartSize: 4
  m_AutoUVMaxDistance: 0.5
  m_AutoUVMaxAngle: 89
  m_LightmapParameters: {fileID: 0}
  m_SortingLayerID: 0
  m_SortingLayer: 0
  m_SortingOrder: 0
  serializedVersion: 2
  m_Quality: 0
  m_UpdateWhenOffscreen: 0
  m_SkinnedMotionVectors: 1
  m_Mesh: {fileID: 4300000, guid: 959d14bf134f54a6e993fe6ca6e063c0, type: 3}
  m_Bones:
  - {fileID: 549381897}
  - {fileID: 1352777734}
  - {fileID: 2068172140}
  - {fileID: 658557585}
  - {fileID: 147244218}
  - {fileID: 1329598303}
  - {fileID: 1946610820}
  - {fileID: 918966889}
  - {fileID: 396859340}
  - {fileID: 2061228840}
  - {fileID: 1449716075}
  - {fileID: 2042110421}
  - {fileID: 1051052522}
  - {fileID: 895364303}
  - {fileID: 1533126750}
  - {fileID: 1756926907}
  - {fileID: 421344775}
  - {fileID: 60494056}
  - {fileID: 1099702038}
  - {fileID: 1873609688}
  - {fileID: 1618081541}
  - {fileID: 616309835}
  - {fileID: 1179610123}
  - {fileID: 1271917787}
  - {fileID: 1546587122}
  - {fileID: 2059630897}
  - {fileID: 1216856524}
  - {fileID: 1560817817}
  - {fileID: 320817098}
  - {fileID: 102043099}
  - {fileID: 340078630}
  - {fileID: 2022302129}
  - {fileID: 1553336731}
  - {fileID: 1289054468}
  - {fileID: 1337234897}
  - {fileID: 1983198958}
  - {fileID: 127049623}
  - {fileID: 937113188}
  - {fileID: 1476626230}
  - {fileID: 747414014}
  - {fileID: 2078119364}
  - {fileID: 259321499}
  - {fileID: 6467330}
  - {fileID: 1493159008}
  - {fileID: 328188907}
  - {fileID: 132010119}
  - {fileID: 542214084}
  - {fileID: 1964362848}
  - {fileID: 432137718}
  - {fileID: 1013175518}
  - {fileID: 1736060480}
  - {fileID: 1126697428}
  - {fileID: 441399257}
  - {fileID: 788304569}
  - {fileID: 1557506988}
  - {fileID: 1976622954}
  m_BlendShapeWeights: []
  m_RootBone: {fileID: 658557585}
  m_AABB:
    m_Center: {x: -0.01371482, y: -0.0000008493662, z: 0.00061777234}
    m_Extent: {x: 0.16746342, y: 0.48301, z: 0.89055586}
  m_DirtyAABB: 0
--- !u!1 &1756926906
GameObject:
  m_ObjectHideFlags: 0
  m_PrefabParentObject: {fileID: 100052, guid: 959d14bf134f54a6e993fe6ca6e063c0, type: 3}
  m_PrefabInternal: {fileID: 0}
  serializedVersion: 5
  m_Component:
  - component: {fileID: 1756926907}
  m_Layer: 0
  m_Name: Bip002 Spine1
  m_TagString: Untagged
  m_Icon: {fileID: 0}
  m_NavMeshLayer: 0
  m_StaticEditorFlags: 0
  m_IsActive: 1
--- !u!4 &1756926907
Transform:
  m_ObjectHideFlags: 0
  m_PrefabParentObject: {fileID: 400052, guid: 959d14bf134f54a6e993fe6ca6e063c0, type: 3}
  m_PrefabInternal: {fileID: 0}
  m_GameObject: {fileID: 1756926906}
  m_LocalRotation: {x: 4.0745185e-14, y: 0, z: -0, w: 1}
  m_LocalPosition: {x: -0.10531403, y: -0.00008385659, z: -2.3259054e-10}
  m_LocalScale: {x: 1, y: 1, z: 1}
  m_Children:
  - {fileID: 918966889}
  m_Father: {fileID: 2068172140}
  m_RootOrder: 2
  m_LocalEulerAnglesHint: {x: 0, y: 0, z: 0}
--- !u!1 &1813504681
GameObject:
  m_ObjectHideFlags: 0
  m_PrefabParentObject: {fileID: 100024, guid: 7a30e2e74b2c24169a1b8eb71cf56878, type: 3}
  m_PrefabInternal: {fileID: 2074133477}
  serializedVersion: 5
  m_Component:
  - component: {fileID: 307773728}
  m_Layer: 0
  m_Name: MP-40
  m_TagString: Untagged
  m_Icon: {fileID: 0}
  m_NavMeshLayer: 0
  m_StaticEditorFlags: 0
  m_IsActive: 1
--- !u!1 &1847439069
GameObject:
  m_ObjectHideFlags: 0
  m_PrefabParentObject: {fileID: 100028, guid: 7a30e2e74b2c24169a1b8eb71cf56878, type: 3}
  m_PrefabInternal: {fileID: 2074133477}
  serializedVersion: 5
  m_Component:
  - component: {fileID: 189356423}
  m_Layer: 0
  m_Name: AimTransform
  m_TagString: Untagged
  m_Icon: {fileID: 0}
  m_NavMeshLayer: 0
  m_StaticEditorFlags: 0
  m_IsActive: 1
--- !u!1 &1873609687
GameObject:
  m_ObjectHideFlags: 0
  m_PrefabParentObject: {fileID: 100016, guid: 959d14bf134f54a6e993fe6ca6e063c0, type: 3}
  m_PrefabInternal: {fileID: 0}
  serializedVersion: 5
  m_Component:
  - component: {fileID: 1873609688}
  m_Layer: 0
  m_Name: Bip002 L Toe0
  m_TagString: Untagged
  m_Icon: {fileID: 0}
  m_NavMeshLayer: 0
  m_StaticEditorFlags: 0
  m_IsActive: 1
--- !u!4 &1873609688
Transform:
  m_ObjectHideFlags: 0
  m_PrefabParentObject: {fileID: 400016, guid: 959d14bf134f54a6e993fe6ca6e063c0, type: 3}
  m_PrefabInternal: {fileID: 0}
  m_GameObject: {fileID: 1873609687}
  m_LocalRotation: {x: -0.000000015454312, y: 0.000000015454312, z: -0.7071068, w: 0.7071068}
  m_LocalPosition: {x: -0.06716837, y: 0.13374838, z: 0}
  m_LocalScale: {x: 1, y: 1, z: 1}
  m_Children:
  - {fileID: 677241741}
  m_Father: {fileID: 60494056}
  m_RootOrder: 0
  m_LocalEulerAnglesHint: {x: 0, y: 0, z: 0}
--- !u!1 &1946610819
GameObject:
  m_ObjectHideFlags: 0
  m_PrefabParentObject: {fileID: 100022, guid: 959d14bf134f54a6e993fe6ca6e063c0, type: 3}
  m_PrefabInternal: {fileID: 0}
  serializedVersion: 5
  m_Component:
  - component: {fileID: 1946610820}
  m_Layer: 0
  m_Name: Bip002 L UpperArm
  m_TagString: Untagged
  m_Icon: {fileID: 0}
  m_NavMeshLayer: 0
  m_StaticEditorFlags: 0
  m_IsActive: 1
--- !u!4 &1946610820
Transform:
  m_ObjectHideFlags: 0
  m_PrefabParentObject: {fileID: 400022, guid: 959d14bf134f54a6e993fe6ca6e063c0, type: 3}
  m_PrefabInternal: {fileID: 0}
  m_GameObject: {fileID: 1946610819}
  m_LocalRotation: {x: 0.3957287, y: -0.43531162, z: 0.03300276, w: 0.8079687}
  m_LocalPosition: {x: -0.17969485, y: 9.536744e-10, z: 0}
  m_LocalScale: {x: 1.0000001, y: 1.0000001, z: 1}
  m_Children:
  - {fileID: 1051052522}
  m_Father: {fileID: 1329598303}
  m_RootOrder: 0
  m_LocalEulerAnglesHint: {x: 0, y: 0, z: 0}
--- !u!1 &1964362847
GameObject:
  m_ObjectHideFlags: 0
  m_PrefabParentObject: {fileID: 100102, guid: 959d14bf134f54a6e993fe6ca6e063c0, type: 3}
  m_PrefabInternal: {fileID: 0}
  serializedVersion: 5
  m_Component:
  - component: {fileID: 1964362848}
  m_Layer: 0
  m_Name: BipDummy R Finger22
  m_TagString: Untagged
  m_Icon: {fileID: 0}
  m_NavMeshLayer: 0
  m_StaticEditorFlags: 0
  m_IsActive: 1
--- !u!4 &1964362848
Transform:
  m_ObjectHideFlags: 0
  m_PrefabParentObject: {fileID: 400102, guid: 959d14bf134f54a6e993fe6ca6e063c0, type: 3}
  m_PrefabInternal: {fileID: 0}
  m_GameObject: {fileID: 1964362847}
  m_LocalRotation: {x: -3.7377737e-10, y: -0.0000000037064913, z: -0.100335106, w: 0.99495375}
  m_LocalPosition: {x: -0.023578431, y: 0, z: 0.00000003051758}
  m_LocalScale: {x: 1, y: 1.0000001, z: 1.0000001}
  m_Children: []
  m_Father: {fileID: 542214084}
  m_RootOrder: 0
  m_LocalEulerAnglesHint: {x: 0, y: 0, z: 0}
--- !u!1 &1976622953
GameObject:
  m_ObjectHideFlags: 0
  m_PrefabParentObject: {fileID: 100020, guid: 959d14bf134f54a6e993fe6ca6e063c0, type: 3}
  m_PrefabInternal: {fileID: 0}
  serializedVersion: 5
  m_Component:
  - component: {fileID: 1976622954}
  m_Layer: 0
  m_Name: Bip002 L Toe02
  m_TagString: Untagged
  m_Icon: {fileID: 0}
  m_NavMeshLayer: 0
  m_StaticEditorFlags: 0
  m_IsActive: 1
--- !u!4 &1976622954
Transform:
  m_ObjectHideFlags: 0
  m_PrefabParentObject: {fileID: 400020, guid: 959d14bf134f54a6e993fe6ca6e063c0, type: 3}
  m_PrefabInternal: {fileID: 0}
  m_GameObject: {fileID: 1976622953}
  m_LocalRotation: {x: 0, y: -9.407548e-16, z: -0, w: 1}
  m_LocalPosition: {x: -0.012151627, y: 0, z: -0.000000007629395}
  m_LocalScale: {x: 1, y: 1, z: 1}
  m_Children: []
  m_Father: {fileID: 677241741}
  m_RootOrder: 0
  m_LocalEulerAnglesHint: {x: 0, y: 0, z: 0}
--- !u!1 &1983198957
GameObject:
  m_ObjectHideFlags: 0
  m_PrefabParentObject: {fileID: 100068, guid: 959d14bf134f54a6e993fe6ca6e063c0, type: 3}
  m_PrefabInternal: {fileID: 0}
  serializedVersion: 5
  m_Component:
  - component: {fileID: 1983198958}
  m_Layer: 0
  m_Name: BipDummy L Finger12
  m_TagString: Untagged
  m_Icon: {fileID: 0}
  m_NavMeshLayer: 0
  m_StaticEditorFlags: 0
  m_IsActive: 1
--- !u!4 &1983198958
Transform:
  m_ObjectHideFlags: 0
  m_PrefabParentObject: {fileID: 400068, guid: 959d14bf134f54a6e993fe6ca6e063c0, type: 3}
  m_PrefabInternal: {fileID: 0}
  m_GameObject: {fileID: 1983198957}
  m_LocalRotation: {x: 0.000000039817607, y: -0.000000012218085, z: -0.117604196,
    w: 0.9930606}
  m_LocalPosition: {x: -0.01876288, y: 0.00000003051758, z: 0}
  m_LocalScale: {x: 1, y: 1.0000001, z: 1}
  m_Children: []
  m_Father: {fileID: 1337234897}
  m_RootOrder: 0
  m_LocalEulerAnglesHint: {x: 0, y: 0, z: 0}
--- !u!1 &1991283872
GameObject:
  m_ObjectHideFlags: 0
  m_PrefabParentObject: {fileID: 0}
  m_PrefabInternal: {fileID: 0}
  serializedVersion: 5
  m_Component:
  - component: {fileID: 1991283877}
  - component: {fileID: 1991283876}
  - component: {fileID: 1991283875}
  - component: {fileID: 1991283874}
  - component: {fileID: 1991283873}
  m_Layer: 0
  m_Name: Main Camera
  m_TagString: MainCamera
  m_Icon: {fileID: 0}
  m_NavMeshLayer: 0
  m_StaticEditorFlags: 0
  m_IsActive: 1
--- !u!81 &1991283873
AudioListener:
  m_ObjectHideFlags: 0
  m_PrefabParentObject: {fileID: 0}
  m_PrefabInternal: {fileID: 0}
  m_GameObject: {fileID: 1991283872}
  m_Enabled: 1
--- !u!124 &1991283874
Behaviour:
  m_ObjectHideFlags: 0
  m_PrefabParentObject: {fileID: 0}
  m_PrefabInternal: {fileID: 0}
  m_GameObject: {fileID: 1991283872}
  m_Enabled: 1
--- !u!92 &1991283875
Behaviour:
  m_ObjectHideFlags: 0
  m_PrefabParentObject: {fileID: 0}
  m_PrefabInternal: {fileID: 0}
  m_GameObject: {fileID: 1991283872}
  m_Enabled: 1
--- !u!20 &1991283876
Camera:
  m_ObjectHideFlags: 0
  m_PrefabParentObject: {fileID: 0}
  m_PrefabInternal: {fileID: 0}
  m_GameObject: {fileID: 1991283872}
  m_Enabled: 1
  serializedVersion: 2
  m_ClearFlags: 1
  m_BackGroundColor: {r: 0.27450982, g: 0.27450982, b: 0.27450982, a: 0.019607844}
  m_NormalizedViewPortRect:
    serializedVersion: 2
    x: 0
    y: 0
    width: 1
    height: 1
  near clip plane: 0.3
  far clip plane: 1000
  field of view: 60
  orthographic: 0
  orthographic size: 5
  m_Depth: -1
  m_CullingMask:
    serializedVersion: 2
    m_Bits: 4294967295
  m_RenderingPath: -1
  m_TargetTexture: {fileID: 0}
  m_TargetDisplay: 0
  m_TargetEye: 3
  m_HDR: 0
  m_AllowMSAA: 1
  m_AllowDynamicResolution: 0
  m_ForceIntoRT: 0
  m_OcclusionCulling: 1
  m_StereoConvergence: 10
  m_StereoSeparation: 0.022
--- !u!4 &1991283877
Transform:
  m_ObjectHideFlags: 0
  m_PrefabParentObject: {fileID: 0}
  m_PrefabInternal: {fileID: 0}
  m_GameObject: {fileID: 1991283872}
  m_LocalRotation: {x: 0.03181353, y: 0.86779124, z: -0.07152981, w: -0.49072376}
  m_LocalPosition: {x: 1.73, y: 1.26, z: 2.08}
  m_LocalScale: {x: 1, y: 1, z: 1}
  m_Children: []
  m_Father: {fileID: 0}
  m_RootOrder: 2
  m_LocalEulerAnglesHint: {x: 0, y: 0, z: 0}
--- !u!1 &2022302128
GameObject:
  m_ObjectHideFlags: 0
  m_PrefabParentObject: {fileID: 100074, guid: 959d14bf134f54a6e993fe6ca6e063c0, type: 3}
  m_PrefabInternal: {fileID: 0}
  serializedVersion: 5
  m_Component:
  - component: {fileID: 2022302129}
  m_Layer: 0
  m_Name: BipDummy L Finger22
  m_TagString: Untagged
  m_Icon: {fileID: 0}
  m_NavMeshLayer: 0
  m_StaticEditorFlags: 0
  m_IsActive: 1
--- !u!4 &2022302129
Transform:
  m_ObjectHideFlags: 0
  m_PrefabParentObject: {fileID: 400074, guid: 959d14bf134f54a6e993fe6ca6e063c0, type: 3}
  m_PrefabInternal: {fileID: 0}
  m_GameObject: {fileID: 2022302128}
  m_LocalRotation: {x: -8.062054e-10, y: -0.000000037430024, z: -0.120907776, w: 0.99266374}
  m_LocalPosition: {x: -0.02357837, y: 0, z: -0.00000001525879}
  m_LocalScale: {x: 1, y: 1.0000001, z: 1}
  m_Children: []
  m_Father: {fileID: 340078630}
  m_RootOrder: 0
  m_LocalEulerAnglesHint: {x: 0, y: 0, z: 0}
--- !u!1 &2042110420
GameObject:
  m_ObjectHideFlags: 0
  m_PrefabParentObject: {fileID: 100030, guid: 959d14bf134f54a6e993fe6ca6e063c0, type: 3}
  m_PrefabInternal: {fileID: 0}
  serializedVersion: 5
  m_Component:
  - component: {fileID: 2042110421}
  m_Layer: 0
  m_Name: Bip002 R Clavicle
  m_TagString: Untagged
  m_Icon: {fileID: 0}
  m_NavMeshLayer: 0
  m_StaticEditorFlags: 0
  m_IsActive: 1
--- !u!4 &2042110421
Transform:
  m_ObjectHideFlags: 0
  m_PrefabParentObject: {fileID: 400030, guid: 959d14bf134f54a6e993fe6ca6e063c0, type: 3}
  m_PrefabInternal: {fileID: 0}
  m_GameObject: {fileID: 2042110420}
  m_LocalRotation: {x: 0.69003195, y: 0.10505109, z: 0.7079571, w: -0.10778195}
  m_LocalPosition: {x: -0, y: 0.0001090088, z: -0.028353818}
  m_LocalScale: {x: 1, y: 1, z: 1}
  m_Children:
  - {fileID: 895364303}
  m_Father: {fileID: 2061228840}
  m_RootOrder: 2
  m_LocalEulerAnglesHint: {x: 0, y: 0, z: 0}
--- !u!1 &2042317380
GameObject:
  m_ObjectHideFlags: 0
  m_PrefabParentObject: {fileID: 100118, guid: 959d14bf134f54a6e993fe6ca6e063c0, type: 3}
  m_PrefabInternal: {fileID: 0}
  serializedVersion: 5
  m_Component:
  - component: {fileID: 2042317381}
  - component: {fileID: 2042317385}
  - component: {fileID: 2042317383}
  - component: {fileID: 2042317386}
  m_Layer: 0
  m_Name: Dummy Humanoid
  m_TagString: Untagged
  m_Icon: {fileID: 0}
  m_NavMeshLayer: 0
  m_StaticEditorFlags: 0
  m_IsActive: 1
--- !u!4 &2042317381
Transform:
  m_ObjectHideFlags: 0
  m_PrefabParentObject: {fileID: 400118, guid: 959d14bf134f54a6e993fe6ca6e063c0, type: 3}
  m_PrefabInternal: {fileID: 0}
  m_GameObject: {fileID: 2042317380}
  m_LocalRotation: {x: 0, y: 0, z: 0, w: 1}
  m_LocalPosition: {x: 0, y: 0, z: 0}
  m_LocalScale: {x: 1, y: 1, z: 1}
  m_Children:
  - {fileID: 658557585}
  - {fileID: 1754976965}
  m_Father: {fileID: 0}
  m_RootOrder: 3
  m_LocalEulerAnglesHint: {x: 0, y: 0, z: 0}
--- !u!114 &2042317383
MonoBehaviour:
  m_ObjectHideFlags: 0
  m_PrefabParentObject: {fileID: 0}
  m_PrefabInternal: {fileID: 0}
  m_GameObject: {fileID: 2042317380}
  m_Enabled: 1
  m_EditorHideFlags: 0
  m_Script: {fileID: 11500000, guid: 5013856973b27429d937d256dc082f2e, type: 3}
  m_Name: 
  m_EditorClassIdentifier: 
  fixTransforms: 1
  solver:
    IKPosition: {x: 0.63441545, y: -1.5911732, z: 1.6862015}
    IKPositionWeight: 0
    root: {fileID: 2042317381}
    target: {fileID: 0}
    tolerance: 0
    maxIterations: 4
    useRotationLimits: 1
    XY: 0
    bones:
    - transform: {fileID: 1756926907}
      weight: 0.5
      solverPosition: {x: 0, y: 0, z: 0}
      solverRotation: {x: 0, y: 0, z: 0, w: 0}
      defaultLocalPosition: {x: -0.10531403, y: -0.00008385659, z: -2.3259054e-10}
      defaultLocalRotation: {x: 4.0745185e-14, y: 0, z: -0, w: 1}
      length: 0
      sqrMag: 0
      axis: {x: 0, y: 0, z: 0}
    - transform: {fileID: 918966889}
      weight: 0.5
      solverPosition: {x: 0, y: 0, z: 0}
      solverRotation: {x: 0, y: 0, z: 0, w: 0}
      defaultLocalPosition: {x: -0.10531482, y: -0.00008385659, z: -2.3258327e-10}
      defaultLocalRotation: {x: -8.096637e-15, y: 0.000000010320556, z: -0.0037209948,
        w: 0.9999931}
      length: 0
      sqrMag: 0
      axis: {x: 0, y: 0, z: 0}
    - transform: {fileID: 396859340}
      weight: 0.5
      solverPosition: {x: 0, y: 0, z: 0}
      solverRotation: {x: 0, y: 0, z: 0, w: 0}
      defaultLocalPosition: {x: -0.10531482, y: -0.00008385468, z: -2.3258327e-10}
      defaultLocalRotation: {x: -1.1736887e-13, y: 0.000000010320554, z: -0.0037209955,
        w: 0.9999931}
      length: 0
      sqrMag: 0
      axis: {x: 0, y: 0, z: 0}
    - transform: {fileID: 2061228840}
      weight: 0.9
      solverPosition: {x: 0, y: 0, z: 0}
      solverRotation: {x: 0, y: 0, z: 0, w: 0}
      defaultLocalPosition: {x: -0.10534644, y: -0.00010401631, z: -2.884772e-10}
      defaultLocalRotation: {x: 4.448862e-14, y: 0.0000004163574, z: -0.15011443,
        w: 0.9886686}
      length: 0
      sqrMag: 0
      axis: {x: 0, y: 0, z: 0}
    transform: {fileID: 189356423}
    axis: {x: 0, y: -1, z: 0}
    poleAxis: {x: 0, y: 0, z: 1}
    polePosition: {x: -1.6141793, y: 1.9858078, z: 2.072242}
    poleWeight: 0
    poleTarget: {fileID: 0}
    clampWeight: 0.5
    clampSmoothing: 2
--- !u!95 &2042317385
Animator:
  serializedVersion: 3
  m_ObjectHideFlags: 0
  m_PrefabParentObject: {fileID: 9500000, guid: 959d14bf134f54a6e993fe6ca6e063c0,
    type: 3}
  m_PrefabInternal: {fileID: 0}
  m_GameObject: {fileID: 2042317380}
  m_Enabled: 1
  m_Avatar: {fileID: 9000000, guid: 959d14bf134f54a6e993fe6ca6e063c0, type: 3}
  m_Controller: {fileID: 9100000, guid: 862215ce0634945408572dc04fc065cd, type: 2}
  m_CullingMode: 1
  m_UpdateMode: 0
  m_ApplyRootMotion: 1
  m_LinearVelocityBlending: 0
  m_WarningMessage: 
  m_HasTransformHierarchy: 1
  m_AllowConstantClipSamplingOptimization: 1
--- !u!114 &2042317386
MonoBehaviour:
  m_ObjectHideFlags: 0
  m_PrefabParentObject: {fileID: 0}
  m_PrefabInternal: {fileID: 0}
  m_GameObject: {fileID: 2042317380}
  m_Enabled: 1
  m_EditorHideFlags: 0
  m_Script: {fileID: 11500000, guid: c9df7d42e7cb1a54a8eb68e9e9f0dc68, type: 3}
  m_Name: 
  m_EditorClassIdentifier: 
  ik: {fileID: 2042317383}
  weight: 1
  target: {fileID: 480133524}
  targetSwitchSmoothTime: 0.3
  weightSmoothTime: 0.3
  smoothTurnTowardsTarget: 1
  maxRadiansDelta: 3
  maxMagnitudeDelta: 3
  slerpSpeed: 3
  pivotOffsetFromRoot: {x: 0, y: 1, z: 0}
  minDistance: 1
  offset: {x: 0, y: 0, z: 0}
  maxRootAngle: 45
  useAnimatedAimDirection: 0
  animatedAimDirection: {x: 0, y: 0, z: 1}
--- !u!1 &2059630896
GameObject:
  m_ObjectHideFlags: 0
  m_PrefabParentObject: {fileID: 100076, guid: 959d14bf134f54a6e993fe6ca6e063c0, type: 3}
  m_PrefabInternal: {fileID: 0}
  serializedVersion: 5
  m_Component:
  - component: {fileID: 2059630897}
  m_Layer: 0
  m_Name: BipDummy L Finger3
  m_TagString: Untagged
  m_Icon: {fileID: 0}
  m_NavMeshLayer: 0
  m_StaticEditorFlags: 0
  m_IsActive: 1
--- !u!4 &2059630897
Transform:
  m_ObjectHideFlags: 0
  m_PrefabParentObject: {fileID: 400076, guid: 959d14bf134f54a6e993fe6ca6e063c0, type: 3}
  m_PrefabInternal: {fileID: 0}
  m_GameObject: {fileID: 2059630896}
  m_LocalRotation: {x: -0.002835928, y: 0.013507943, z: -0.17714134, w: 0.98408866}
  m_LocalPosition: {x: -0.10328601, y: 0.0010223389, z: 0.020135194}
  m_LocalScale: {x: 1, y: 1.0000001, z: 1.0000001}
  m_Children:
  - {fileID: 1553336731}
  m_Father: {fileID: 1271917787}
  m_RootOrder: 3
  m_LocalEulerAnglesHint: {x: 0, y: 0, z: 0}
--- !u!1 &2061228839
GameObject:
  m_ObjectHideFlags: 0
  m_PrefabParentObject: {fileID: 100024, guid: 959d14bf134f54a6e993fe6ca6e063c0, type: 3}
  m_PrefabInternal: {fileID: 0}
  serializedVersion: 5
  m_Component:
  - component: {fileID: 2061228840}
  m_Layer: 0
  m_Name: Bip002 Neck
  m_TagString: Untagged
  m_Icon: {fileID: 0}
  m_NavMeshLayer: 0
  m_StaticEditorFlags: 0
  m_IsActive: 1
--- !u!4 &2061228840
Transform:
  m_ObjectHideFlags: 0
  m_PrefabParentObject: {fileID: 400024, guid: 959d14bf134f54a6e993fe6ca6e063c0, type: 3}
  m_PrefabInternal: {fileID: 0}
  m_GameObject: {fileID: 2061228839}
  m_LocalRotation: {x: 4.448862e-14, y: 0.0000004163574, z: -0.15011443, w: 0.9886686}
  m_LocalPosition: {x: -0.10534644, y: -0.00010401631, z: -2.884772e-10}
  m_LocalScale: {x: 1.0000001, y: 1.0000001, z: 1}
  m_Children:
  - {fileID: 1449716075}
  - {fileID: 1329598303}
  - {fileID: 2042110421}
  m_Father: {fileID: 396859340}
  m_RootOrder: 0
  m_LocalEulerAnglesHint: {x: 0, y: 0, z: 0}
--- !u!1 &2068172139
GameObject:
  m_ObjectHideFlags: 0
  m_PrefabParentObject: {fileID: 100050, guid: 959d14bf134f54a6e993fe6ca6e063c0, type: 3}
  m_PrefabInternal: {fileID: 0}
  serializedVersion: 5
  m_Component:
  - component: {fileID: 2068172140}
  m_Layer: 0
  m_Name: Bip002 Spine
  m_TagString: Untagged
  m_Icon: {fileID: 0}
  m_NavMeshLayer: 0
  m_StaticEditorFlags: 0
  m_IsActive: 1
--- !u!4 &2068172140
Transform:
  m_ObjectHideFlags: 0
  m_PrefabParentObject: {fileID: 400050, guid: 959d14bf134f54a6e993fe6ca6e063c0, type: 3}
  m_PrefabInternal: {fileID: 0}
  m_GameObject: {fileID: 2068172139}
  m_LocalRotation: {x: -0.000002070677, y: 0.000000684224, z: 0.013477894, w: 0.99990916}
  m_LocalPosition: {x: -0.09316022, y: -0.00008378435, z: 0.00000012931065}
  m_LocalScale: {x: 1, y: 1, z: 1}
  m_Children:
  - {fileID: 549381897}
  - {fileID: 147244218}
  - {fileID: 1756926907}
  m_Father: {fileID: 1352777734}
  m_RootOrder: 0
  m_LocalEulerAnglesHint: {x: 0, y: 0, z: 0}
--- !u!1001 &2074133477
Prefab:
  m_ObjectHideFlags: 0
  serializedVersion: 2
  m_Modification:
    m_TransformParent: {fileID: 747414014}
    m_Modifications:
    - target: {fileID: 400024, guid: 7a30e2e74b2c24169a1b8eb71cf56878, type: 3}
      propertyPath: m_LocalPosition.x
      value: 0
      objectReference: {fileID: 0}
    - target: {fileID: 400024, guid: 7a30e2e74b2c24169a1b8eb71cf56878, type: 3}
      propertyPath: m_LocalPosition.y
      value: 0
      objectReference: {fileID: 0}
    - target: {fileID: 400024, guid: 7a30e2e74b2c24169a1b8eb71cf56878, type: 3}
      propertyPath: m_LocalPosition.z
      value: -0
      objectReference: {fileID: 0}
    - target: {fileID: 400024, guid: 7a30e2e74b2c24169a1b8eb71cf56878, type: 3}
      propertyPath: m_LocalRotation.x
      value: 1.01327896e-06
      objectReference: {fileID: 0}
    - target: {fileID: 400024, guid: 7a30e2e74b2c24169a1b8eb71cf56878, type: 3}
      propertyPath: m_LocalRotation.y
      value: -3.12924385e-07
      objectReference: {fileID: 0}
    - target: {fileID: 400024, guid: 7a30e2e74b2c24169a1b8eb71cf56878, type: 3}
      propertyPath: m_LocalRotation.z
      value: 1.04308128e-07
      objectReference: {fileID: 0}
    - target: {fileID: 400024, guid: 7a30e2e74b2c24169a1b8eb71cf56878, type: 3}
      propertyPath: m_LocalRotation.w
      value: 1
      objectReference: {fileID: 0}
    - target: {fileID: 400024, guid: 7a30e2e74b2c24169a1b8eb71cf56878, type: 3}
      propertyPath: m_LocalScale.x
      value: 1
      objectReference: {fileID: 0}
    - target: {fileID: 400024, guid: 7a30e2e74b2c24169a1b8eb71cf56878, type: 3}
      propertyPath: m_LocalScale.z
      value: 1
      objectReference: {fileID: 0}
    - target: {fileID: 400024, guid: 7a30e2e74b2c24169a1b8eb71cf56878, type: 3}
      propertyPath: m_RootOrder
      value: 5
      objectReference: {fileID: 0}
    - target: {fileID: 2300000, guid: 7a30e2e74b2c24169a1b8eb71cf56878, type: 3}
      propertyPath: m_Materials.Array.data[0]
      value: 
      objectReference: {fileID: 2100000, guid: eb554719301d24a27a03d90e35702330, type: 2}
    m_RemovedComponents:
    - {fileID: 9500000, guid: 7a30e2e74b2c24169a1b8eb71cf56878, type: 3}
  m_ParentPrefab: {fileID: 100100000, guid: 7a30e2e74b2c24169a1b8eb71cf56878, type: 3}
  m_RootGameObject: {fileID: 1813504681}
  m_IsPrefabParent: 0
--- !u!1 &2078119363
GameObject:
  m_ObjectHideFlags: 0
  m_PrefabParentObject: {fileID: 100098, guid: 959d14bf134f54a6e993fe6ca6e063c0, type: 3}
  m_PrefabInternal: {fileID: 0}
  serializedVersion: 5
  m_Component:
  - component: {fileID: 2078119364}
  m_Layer: 0
  m_Name: BipDummy R Finger2
  m_TagString: Untagged
  m_Icon: {fileID: 0}
  m_NavMeshLayer: 0
  m_StaticEditorFlags: 0
  m_IsActive: 1
--- !u!4 &2078119364
Transform:
  m_ObjectHideFlags: 0
  m_PrefabParentObject: {fileID: 400098, guid: 959d14bf134f54a6e993fe6ca6e063c0, type: 3}
  m_PrefabInternal: {fileID: 0}
  m_GameObject: {fileID: 2078119363}
  m_LocalRotation: {x: 0.0046662716, y: -0.023126798, z: -0.2611372, w: 0.9650134}
  m_LocalPosition: {x: -0.10838886, y: -0.005205994, z: 0.00035925294}
  m_LocalScale: {x: 1.0000001, y: 1.0000001, z: 1.0000001}
  m_Children:
  - {fileID: 542214084}
  m_Father: {fileID: 747414014}
  m_RootOrder: 2
  m_LocalEulerAnglesHint: {x: 0, y: 0, z: 0}
